EESchema Schematic File Version 4
EELAYER 30 0
EELAYER END
$Descr A4 11693 8268
encoding utf-8
Sheet 1 1
Title "rayBeacon Board"
Date ""
Rev "1.5"
Comp "Raytrails, Pvt."
Comment1 "Copyright (c) 2020. All rights reserved."
Comment2 "License: BSD"
Comment3 ""
Comment4 ""
$EndDescr
$Comp
L power:GND #PWR0101
U 1 1 5DB95AFD
P 7700 1850
F 0 "#PWR0101" H 7700 1600 50  0001 C CNN
F 1 "GND" H 7705 1677 50  0000 C CNN
F 2 "" H 7700 1850 50  0001 C CNN
F 3 "" H 7700 1850 50  0001 C CNN
	1    7700 1850
	1    0    0    -1  
$EndComp
Wire Wire Line
	7500 2000 7500 1550
Wire Wire Line
	7500 1550 7700 1550
$Comp
L power:GND #PWR0102
U 1 1 5DB96F28
P 5400 1850
F 0 "#PWR0102" H 5400 1600 50  0001 C CNN
F 1 "GND" H 5405 1677 50  0000 C CNN
F 2 "" H 5400 1850 50  0001 C CNN
F 3 "" H 5400 1850 50  0001 C CNN
	1    5400 1850
	1    0    0    -1  
$EndComp
Wire Wire Line
	5700 2000 5700 1850
Wire Wire Line
	5700 1850 5400 1850
$Comp
L power:GND #PWR0103
U 1 1 5DB989A2
P 5150 1850
F 0 "#PWR0103" H 5150 1600 50  0001 C CNN
F 1 "GND" H 5155 1677 50  0000 C CNN
F 2 "" H 5150 1850 50  0001 C CNN
F 3 "" H 5150 1850 50  0001 C CNN
	1    5150 1850
	1    0    0    -1  
$EndComp
Wire Wire Line
	5800 2000 5800 1550
Wire Wire Line
	5800 1550 5150 1550
$Comp
L power:VDD #PWR0104
U 1 1 5DB99485
P 5150 1550
F 0 "#PWR0104" H 5150 1400 50  0001 C CNN
F 1 "VDD" H 5167 1723 50  0000 C CNN
F 2 "" H 5150 1550 50  0001 C CNN
F 3 "" H 5150 1550 50  0001 C CNN
	1    5150 1550
	1    0    0    -1  
$EndComp
Connection ~ 5150 1550
$Comp
L power:VDD #PWR0105
U 1 1 5DB999B4
P 7500 1550
F 0 "#PWR0105" H 7500 1400 50  0001 C CNN
F 1 "VDD" H 7517 1723 50  0000 C CNN
F 2 "" H 7500 1550 50  0001 C CNN
F 3 "" H 7500 1550 50  0001 C CNN
	1    7500 1550
	1    0    0    -1  
$EndComp
Connection ~ 7500 1550
Wire Wire Line
	9250 2900 9350 2900
Wire Wire Line
	9350 2900 9450 2900
Wire Wire Line
	8950 2900 8850 2900
Connection ~ 8850 2900
Wire Wire Line
	8850 3200 8650 3200
$Comp
L power:GND #PWR0106
U 1 1 5DBA143E
P 8850 3200
F 0 "#PWR0106" H 8850 2950 50  0001 C CNN
F 1 "GND" H 8855 3027 50  0000 C CNN
F 2 "" H 8850 3200 50  0001 C CNN
F 3 "" H 8850 3200 50  0001 C CNN
	1    8850 3200
	1    0    0    -1  
$EndComp
Connection ~ 8850 3200
$Comp
L power:GND #PWR0107
U 1 1 5DBA1B14
P 9350 3200
F 0 "#PWR0107" H 9350 2950 50  0001 C CNN
F 1 "GND" H 9355 3027 50  0000 C CNN
F 2 "" H 9350 3200 50  0001 C CNN
F 3 "" H 9350 3200 50  0001 C CNN
	1    9350 3200
	1    0    0    -1  
$EndComp
Wire Wire Line
	8650 3000 8650 3200
Wire Wire Line
	8000 2900 8850 2900
Wire Wire Line
	8000 3200 8450 3200
Wire Wire Line
	8000 3100 8550 3100
$Comp
L power:GND #PWR0110
U 1 1 5DBB3375
P 8850 4000
F 0 "#PWR0110" H 8850 3750 50  0001 C CNN
F 1 "GND" H 8855 3827 50  0000 C CNN
F 2 "" H 8850 4000 50  0001 C CNN
F 3 "" H 8850 4000 50  0001 C CNN
	1    8850 4000
	1    0    0    -1  
$EndComp
$Comp
L power:GND #PWR0111
U 1 1 5DBB38D2
P 8850 4900
F 0 "#PWR0111" H 8850 4650 50  0001 C CNN
F 1 "GND" H 8855 4727 50  0000 C CNN
F 2 "" H 8850 4900 50  0001 C CNN
F 3 "" H 8850 4900 50  0001 C CNN
	1    8850 4900
	1    0    0    -1  
$EndComp
$Comp
L power:VDD #PWR0112
U 1 1 5DBB4098
P 8850 4600
F 0 "#PWR0112" H 8850 4450 50  0001 C CNN
F 1 "VDD" H 8867 4773 50  0000 C CNN
F 2 "" H 8850 4600 50  0001 C CNN
F 3 "" H 8850 4600 50  0001 C CNN
	1    8850 4600
	1    0    0    -1  
$EndComp
Wire Wire Line
	8850 3700 8350 3700
Wire Wire Line
	8350 3300 8000 3300
Text Label 8100 4100 0    50   ~ 0
SWDIO
Text Label 8100 4200 0    50   ~ 0
SWDCLK
Wire Wire Line
	8100 4100 8000 4100
Wire Wire Line
	8100 4200 8000 4200
Wire Wire Line
	8850 4600 8350 4600
Wire Wire Line
	8350 4600 8350 4300
Wire Wire Line
	8350 4300 8000 4300
Connection ~ 8850 4600
Wire Wire Line
	8550 3100 8550 3500
Wire Wire Line
	8000 2600 8200 2600
Wire Wire Line
	8200 2600 8200 1850
Wire Wire Line
	8500 2700 8500 2450
Wire Wire Line
	8500 2150 9000 2150
$Comp
L power:GND #PWR0113
U 1 1 5DBD802A
P 8350 2000
F 0 "#PWR0113" H 8350 1750 50  0001 C CNN
F 1 "GND" H 8355 1827 50  0000 C CNN
F 2 "" H 8350 2000 50  0001 C CNN
F 3 "" H 8350 2000 50  0001 C CNN
	1    8350 2000
	1    0    0    -1  
$EndComp
Wire Wire Line
	8350 2000 8500 2000
Wire Wire Line
	8500 2000 8500 2150
Connection ~ 8500 2150
Wire Wire Line
	8100 1350 8100 2500
Wire Wire Line
	8650 1450 8650 1350
Wire Wire Line
	9100 1850 8650 1850
Wire Wire Line
	8650 1750 8650 1850
Connection ~ 8650 1850
Wire Wire Line
	8650 1850 8200 1850
$Comp
L power:GND #PWR0114
U 1 1 5DBEDCC0
P 8350 1600
F 0 "#PWR0114" H 8350 1350 50  0001 C CNN
F 1 "GND" H 8355 1427 50  0000 C CNN
F 2 "" H 8350 1600 50  0001 C CNN
F 3 "" H 8350 1600 50  0001 C CNN
	1    8350 1600
	1    0    0    -1  
$EndComp
$Comp
L power:GND #PWR0115
U 1 1 5DBEF5A8
P 9400 1850
F 0 "#PWR0115" H 9400 1600 50  0001 C CNN
F 1 "GND" H 9405 1677 50  0000 C CNN
F 2 "" H 9400 1850 50  0001 C CNN
F 3 "" H 9400 1850 50  0001 C CNN
	1    9400 1850
	1    0    0    -1  
$EndComp
Wire Wire Line
	9400 1350 9400 1850
Connection ~ 9400 1850
$Comp
L power:GND #PWR0116
U 1 1 5DBF106E
P 8950 1600
F 0 "#PWR0116" H 8950 1350 50  0001 C CNN
F 1 "GND" H 8955 1427 50  0000 C CNN
F 2 "" H 8950 1600 50  0001 C CNN
F 3 "" H 8950 1600 50  0001 C CNN
	1    8950 1600
	1    0    0    -1  
$EndComp
Wire Wire Line
	8450 1600 8350 1600
Wire Wire Line
	8950 1600 8850 1600
$Comp
L power:GND #PWR0117
U 1 1 5DBF5066
P 10550 1950
F 0 "#PWR0117" H 10550 1700 50  0001 C CNN
F 1 "GND" H 10555 1777 50  0000 C CNN
F 2 "" H 10550 1950 50  0001 C CNN
F 3 "" H 10550 1950 50  0001 C CNN
	1    10550 1950
	1    0    0    -1  
$EndComp
Wire Wire Line
	8450 3200 8450 3600
Wire Wire Line
	8350 3300 8350 3700
$Comp
L power:VDD #PWR0118
U 1 1 5DBFE7DF
P 6750 5250
F 0 "#PWR0118" H 6750 5100 50  0001 C CNN
F 1 "VDD" H 6767 5423 50  0000 C CNN
F 2 "" H 6750 5250 50  0001 C CNN
F 3 "" H 6750 5250 50  0001 C CNN
	1    6750 5250
	1    0    0    -1  
$EndComp
$Comp
L power:GND #PWR0119
U 1 1 5DBFF0F0
P 6750 5550
F 0 "#PWR0119" H 6750 5300 50  0001 C CNN
F 1 "GND" H 6755 5377 50  0000 C CNN
F 2 "" H 6750 5550 50  0001 C CNN
F 3 "" H 6750 5550 50  0001 C CNN
	1    6750 5550
	1    0    0    -1  
$EndComp
Wire Wire Line
	6750 5250 6650 5250
Connection ~ 6750 5250
Wire Wire Line
	5200 4250 4950 4250
$Comp
L power:GND #PWR0120
U 1 1 5DC02DF9
P 4950 4550
F 0 "#PWR0120" H 4950 4300 50  0001 C CNN
F 1 "GND" H 4955 4377 50  0000 C CNN
F 2 "" H 4950 4550 50  0001 C CNN
F 3 "" H 4950 4550 50  0001 C CNN
	1    4950 4550
	1    0    0    -1  
$EndComp
Wire Wire Line
	5200 3950 4950 3950
Wire Wire Line
	4400 3950 4400 4250
Wire Wire Line
	5200 4050 4950 4050
Wire Wire Line
	4950 4050 4950 3950
Connection ~ 4950 3950
Wire Wire Line
	4950 3950 4400 3950
$Comp
L power:GND #PWR0123
U 1 1 5DC0B672
P 4400 4550
F 0 "#PWR0123" H 4400 4300 50  0001 C CNN
F 1 "GND" H 4405 4377 50  0000 C CNN
F 2 "" H 4400 4550 50  0001 C CNN
F 3 "" H 4400 4550 50  0001 C CNN
	1    4400 4550
	1    0    0    -1  
$EndComp
$Comp
L power:GND #PWR0124
U 1 1 5DC0D020
P 4500 1850
F 0 "#PWR0124" H 4500 1600 50  0001 C CNN
F 1 "GND" H 4505 1677 50  0000 C CNN
F 2 "" H 4500 1850 50  0001 C CNN
F 3 "" H 4500 1850 50  0001 C CNN
	1    4500 1850
	1    0    0    -1  
$EndComp
Wire Wire Line
	5200 2550 4900 2550
Wire Wire Line
	4900 2550 4900 1550
Wire Wire Line
	4900 1550 4500 1550
$Comp
L power:GND #PWR0125
U 1 1 5DC1E80D
P 3250 2750
F 0 "#PWR0125" H 3250 2500 50  0001 C CNN
F 1 "GND" H 3255 2577 50  0000 C CNN
F 2 "" H 3250 2750 50  0001 C CNN
F 3 "" H 3250 2750 50  0001 C CNN
	1    3250 2750
	1    0    0    -1  
$EndComp
Wire Wire Line
	3250 2250 3250 2750
Connection ~ 3250 2750
Wire Wire Line
	3700 2250 3700 2350
Connection ~ 3700 2250
Wire Wire Line
	3700 2250 3550 2250
Wire Wire Line
	3700 2650 3700 2750
Wire Wire Line
	3700 2750 3550 2750
Wire Notes Line
	4300 1900 4300 3000
Wire Notes Line
	4300 3000 3100 3000
Wire Notes Line
	4300 1900 3100 1900
Wire Notes Line
	3100 1900 3100 3000
Wire Wire Line
	4400 2250 4400 2650
Wire Wire Line
	4400 2250 3700 2250
Text Notes 4250 2950 2    50   ~ 0
Optional
$Comp
L power:GND #PWR0126
U 1 1 5DC38EB0
P 6250 1400
F 0 "#PWR0126" H 6250 1150 50  0001 C CNN
F 1 "GND" H 6255 1227 50  0000 C CNN
F 2 "" H 6250 1400 50  0001 C CNN
F 3 "" H 6250 1400 50  0001 C CNN
	1    6250 1400
	1    0    0    -1  
$EndComp
Wire Wire Line
	9000 2450 9650 2450
Wire Wire Line
	9650 2450 9650 950 
Connection ~ 9000 2450
Wire Wire Line
	8600 2450 9000 2450
Wire Wire Line
	8600 2450 8600 2800
Wire Wire Line
	5900 2000 5900 1550
Wire Wire Line
	6100 2000 6100 1400
Wire Wire Line
	6100 1400 6250 1400
Connection ~ 6250 1400
Wire Wire Line
	6000 2000 6000 1100
Wire Wire Line
	6000 1100 6250 1100
Connection ~ 6250 1100
Wire Wire Line
	6250 1100 6650 1100
Wire Wire Line
	6650 1400 6250 1400
Wire Wire Line
	6250 1100 6250 950 
Wire Wire Line
	6250 950  5900 950 
Wire Wire Line
	6650 950  6650 1100
Wire Wire Line
	6650 950  9650 950 
Connection ~ 6650 1100
$Comp
L power:VDD #PWR0127
U 1 1 5DCBA5FC
P 1500 1150
F 0 "#PWR0127" H 1500 1000 50  0001 C CNN
F 1 "VDD" H 1517 1323 50  0000 C CNN
F 2 "" H 1500 1150 50  0001 C CNN
F 3 "" H 1500 1150 50  0001 C CNN
	1    1500 1150
	1    0    0    -1  
$EndComp
$Comp
L power:GND #PWR0128
U 1 1 5DCBAF1D
P 1500 1450
F 0 "#PWR0128" H 1500 1200 50  0001 C CNN
F 1 "GND" H 1505 1277 50  0000 C CNN
F 2 "" H 1500 1450 50  0001 C CNN
F 3 "" H 1500 1450 50  0001 C CNN
	1    1500 1450
	1    0    0    -1  
$EndComp
$Comp
L power:PWR_FLAG #FLG01
U 1 1 5DCBB92E
P 1500 1150
F 0 "#FLG01" H 1500 1225 50  0001 C CNN
F 1 "PWR_FLAG" V 1500 1277 50  0000 L CNN
F 2 "" H 1500 1150 50  0001 C CNN
F 3 "~" H 1500 1150 50  0001 C CNN
	1    1500 1150
	0    -1   -1   0   
$EndComp
Connection ~ 1500 1150
$Comp
L power:PWR_FLAG #FLG02
U 1 1 5DCBC4CA
P 1500 1450
F 0 "#FLG02" H 1500 1525 50  0001 C CNN
F 1 "PWR_FLAG" V 1500 1577 50  0000 L CNN
F 2 "" H 1500 1450 50  0001 C CNN
F 3 "~" H 1500 1450 50  0001 C CNN
	1    1500 1450
	0    -1   -1   0   
$EndComp
Connection ~ 1500 1450
$Comp
L power:VDD #PWR0129
U 1 1 5DCBD37D
P 4400 3950
F 0 "#PWR0129" H 4400 3800 50  0001 C CNN
F 1 "VDD" H 4417 4123 50  0000 C CNN
F 2 "" H 4400 3950 50  0001 C CNN
F 3 "" H 4400 3950 50  0001 C CNN
	1    4400 3950
	1    0    0    -1  
$EndComp
Connection ~ 4400 3950
NoConn ~ 5200 2950
NoConn ~ 6200 2000
NoConn ~ 6300 2000
NoConn ~ 6500 2000
NoConn ~ 6700 2000
NoConn ~ 6800 2000
NoConn ~ 6900 2000
NoConn ~ 7000 2000
NoConn ~ 7100 2000
NoConn ~ 8000 3400
NoConn ~ 8000 4000
NoConn ~ 6950 4800
NoConn ~ 6350 4800
NoConn ~ 7400 2000
Wire Wire Line
	5200 2650 4400 2650
Wire Wire Line
	5200 2750 3700 2750
Connection ~ 3700 2750
$Comp
L power:VDD #PWR01
U 1 1 5DD69416
P 1250 6700
F 0 "#PWR01" H 1250 6550 50  0001 C CNN
F 1 "VDD" H 1267 6873 50  0000 C CNN
F 2 "" H 1250 6700 50  0001 C CNN
F 3 "" H 1250 6700 50  0001 C CNN
	1    1250 6700
	1    0    0    -1  
$EndComp
Text Label 1950 6700 0    50   ~ 0
SWDIO
$Comp
L power:GND #PWR02
U 1 1 5DD6A0A6
P 1250 6900
F 0 "#PWR02" H 1250 6650 50  0001 C CNN
F 1 "GND" H 1255 6727 50  0000 C CNN
F 2 "" H 1250 6900 50  0001 C CNN
F 3 "" H 1250 6900 50  0001 C CNN
	1    1250 6900
	1    0    0    -1  
$EndComp
Text Label 1950 6800 0    50   ~ 0
SWDCLK
Text Label 1950 6900 0    50   ~ 0
SWO
Wire Wire Line
	1450 6900 1250 6900
Wire Wire Line
	1250 6700 1450 6700
Text Label 7450 4900 3    50   ~ 0
SWO
Wire Wire Line
	7450 4800 7450 4900
$Comp
L power:GND #PWR0122
U 1 1 5DC062B8
P 5750 5550
F 0 "#PWR0122" H 5750 5300 50  0001 C CNN
F 1 "GND" H 5755 5377 50  0000 C CNN
F 2 "" H 5750 5550 50  0001 C CNN
F 3 "" H 5750 5550 50  0001 C CNN
	1    5750 5550
	1    0    0    -1  
$EndComp
$Comp
L power:GND #PWR03
U 1 1 5DD8D8D0
P 10050 2350
F 0 "#PWR03" H 10050 2100 50  0001 C CNN
F 1 "GND" H 10055 2177 50  0000 C CNN
F 2 "" H 10050 2350 50  0001 C CNN
F 3 "" H 10050 2350 50  0001 C CNN
	1    10050 2350
	1    0    0    -1  
$EndComp
Wire Wire Line
	9850 2600 9850 2350
$Comp
L power:VDD #PWR04
U 1 1 5DDB0428
P 1650 3550
F 0 "#PWR04" H 1650 3400 50  0001 C CNN
F 1 "VDD" H 1667 3723 50  0000 C CNN
F 2 "" H 1650 3550 50  0001 C CNN
F 3 "" H 1650 3550 50  0001 C CNN
	1    1650 3550
	1    0    0    -1  
$EndComp
$Comp
L power:GND #PWR05
U 1 1 5DDBDBF3
P 1750 2750
F 0 "#PWR05" H 1750 2500 50  0001 C CNN
F 1 "GND" H 1755 2577 50  0000 C CNN
F 2 "" H 1750 2750 50  0001 C CNN
F 3 "" H 1750 2750 50  0001 C CNN
	1    1750 2750
	1    0    0    -1  
$EndComp
Wire Wire Line
	1750 2350 1750 2750
Connection ~ 1750 2750
Text Label 1350 2350 2    50   ~ 0
SW1
Wire Wire Line
	1850 3950 2000 3950
Wire Wire Line
	1300 3950 1450 3950
Text Label 1350 2750 2    50   ~ 0
SW2_RESET
Text Label 1300 4250 3    50   ~ 0
LED_R
Text Label 1650 4250 3    50   ~ 0
LED_G
Text Label 2000 4250 3    50   ~ 0
LED_B
Wire Notes Line
	850  800  850  1750
Wire Notes Line
	850  1750 2000 1750
Wire Notes Line
	2000 1750 2000 800 
Wire Notes Line
	2000 800  850  800 
Wire Notes Line
	850  1950 850  3050
Wire Notes Line
	850  3050 2000 3050
Wire Notes Line
	2000 3050 2000 1950
Wire Notes Line
	2000 1950 850  1950
Wire Notes Line
	850  3250 2500 3250
Wire Notes Line
	2500 3250 2500 4650
Wire Notes Line
	2500 4650 850  4650
Wire Notes Line
	850  4650 850  3250
$Comp
L power:VDD #PWR0130
U 1 1 5DE22EFE
P 3700 6650
F 0 "#PWR0130" H 3700 6500 50  0001 C CNN
F 1 "VDD" H 3717 6823 50  0000 C CNN
F 2 "" H 3700 6650 50  0001 C CNN
F 3 "" H 3700 6650 50  0001 C CNN
	1    3700 6650
	1    0    0    -1  
$EndComp
$Comp
L power:GND #PWR0131
U 1 1 5DE23DDF
P 3700 6950
F 0 "#PWR0131" H 3700 6700 50  0001 C CNN
F 1 "GND" H 3705 6777 50  0000 C CNN
F 2 "" H 3700 6950 50  0001 C CNN
F 3 "" H 3700 6950 50  0001 C CNN
	1    3700 6950
	1    0    0    -1  
$EndComp
Wire Notes Line
	850  6150 850  7350
Wire Notes Line
	850  7350 5350 7350
Wire Notes Line
	5350 7350 5350 6150
Wire Notes Line
	5350 6150 850  6150
Wire Wire Line
	3700 6650 3850 6650
Text Label 5100 3050 2    50   ~ 0
GPIO_P0.04_AIN2
Wire Wire Line
	5200 3050 5100 3050
Text Label 9800 3500 0    50   ~ 0
GPIO_P0.10_NFC2
Text Label 9800 3600 0    50   ~ 0
GPIO_P0.09_NFC1
Text Label 4350 6650 0    50   ~ 0
GPIO_P0.04_AIN2
Wire Wire Line
	5200 3450 5100 3450
Wire Wire Line
	5200 3650 5100 3650
Wire Wire Line
	5200 3850 5100 3850
Text Label 8100 3700 0    50   ~ 0
SW1
Text Label 6550 4900 3    50   ~ 0
SW2_RESET
Wire Wire Line
	6250 4900 6250 4800
Text Label 5750 4900 3    50   ~ 0
VBUS
Text Label 5850 4900 3    50   ~ 0
D-
Text Label 5950 4900 3    50   ~ 0
D+
Wire Wire Line
	5950 4800 5950 4900
Wire Wire Line
	5850 4800 5850 4900
Text Label 3100 5200 2    50   ~ 0
VBUS
Text Label 3100 5350 2    50   ~ 0
D-
Text Label 3100 5500 2    50   ~ 0
D+
$Comp
L power:GND #PWR07
U 1 1 5DD1B455
P 3200 5650
F 0 "#PWR07" H 3200 5400 50  0001 C CNN
F 1 "GND" H 3205 5477 50  0000 C CNN
F 2 "" H 3200 5650 50  0001 C CNN
F 3 "" H 3200 5650 50  0001 C CNN
	1    3200 5650
	1    0    0    -1  
$EndComp
Wire Notes Line
	2700 5950 4050 5950
Wire Notes Line
	4050 5950 4050 4850
Wire Notes Line
	4050 4850 2700 4850
Wire Notes Line
	2700 4850 2700 5950
$Comp
L power:PWR_FLAG #FLG03
U 1 1 5DD29304
P 3200 5200
F 0 "#FLG03" H 3200 5275 50  0001 C CNN
F 1 "PWR_FLAG" H 3200 5373 50  0000 C CNN
F 2 "" H 3200 5200 50  0001 C CNN
F 3 "~" H 3200 5200 50  0001 C CNN
	1    3200 5200
	1    0    0    -1  
$EndComp
Connection ~ 3200 5200
Wire Wire Line
	3100 5350 3200 5350
Wire Wire Line
	3100 5500 3200 5500
Wire Wire Line
	3100 5200 3200 5200
Text Label 5100 2850 2    50   ~ 0
GPIO_P0.26
Wire Wire Line
	5200 2850 5100 2850
Text Label 3850 6750 2    50   ~ 0
GPIO_P0.26
Text Label 5100 3250 2    50   ~ 0
GPIO_P0.06
Wire Wire Line
	5200 3250 5100 3250
NoConn ~ 5200 3150
NoConn ~ 5200 3750
NoConn ~ 5200 3550
NoConn ~ 5200 3350
Text Label 5100 3450 2    50   ~ 0
GPIO_P0.08
Text Label 5100 3650 2    50   ~ 0
GPIO_P1.09
Text Label 5100 3850 2    50   ~ 0
GPIO_P0.12
NoConn ~ 6600 2000
NoConn ~ 6400 2000
Text Label 4350 6750 0    50   ~ 0
GPIO_P0.06
Text Label 4350 6850 0    50   ~ 0
GPIO_P0.08
Text Label 3850 6850 2    50   ~ 0
GPIO_P0.12
Text Label 4350 6950 0    50   ~ 0
GPIO_P1.09
Wire Wire Line
	3700 6950 3850 6950
Text Label 6050 4900 3    50   ~ 0
LED_R
Text Label 6250 4900 3    50   ~ 0
LED_G
Text Label 6450 4900 3    50   ~ 0
LED_B
Wire Wire Line
	8000 3000 8650 3000
Wire Wire Line
	9100 1350 8650 1350
Connection ~ 8650 1350
Wire Wire Line
	8100 1350 8650 1350
Wire Wire Line
	8100 2500 8000 2500
Wire Wire Line
	8500 2700 8000 2700
Wire Wire Line
	8600 2800 8000 2800
Text Label 1900 5150 2    50   ~ 0
GPIO_P0.09_NFC1
Text Label 1900 5350 2    50   ~ 0
GPIO_P0.10_NFC2
Wire Notes Line
	850  4850 2500 4850
Wire Notes Line
	2500 4850 2500 5950
Wire Notes Line
	2500 5950 850  5950
Wire Notes Line
	850  5950 850  4850
NoConn ~ 8000 3500
Wire Wire Line
	8100 3700 8000 3700
Wire Wire Line
	6650 4800 6650 5250
NoConn ~ 6150 4800
Wire Wire Line
	6450 4800 6450 4900
Wire Wire Line
	6050 4800 6050 4900
Wire Wire Line
	5750 4800 5750 5250
NoConn ~ 6850 4800
NoConn ~ 7250 4800
NoConn ~ 2000 5250
$Comp
L power:GND #PWR06
U 1 1 5E161388
P 2200 5650
F 0 "#PWR06" H 2200 5400 50  0001 C CNN
F 1 "GND" H 2205 5477 50  0000 C CNN
F 2 "" H 2200 5650 50  0001 C CNN
F 3 "" H 2200 5650 50  0001 C CNN
	1    2200 5650
	1    0    0    -1  
$EndComp
$Comp
L power:VDD #PWR0121
U 1 1 5E2AB81B
P 3300 3550
F 0 "#PWR0121" H 3300 3400 50  0001 C CNN
F 1 "VDD" H 3317 3723 50  0000 C CNN
F 2 "" H 3300 3550 50  0001 C CNN
F 3 "" H 3300 3550 50  0001 C CNN
	1    3300 3550
	1    0    0    -1  
$EndComp
Wire Wire Line
	3300 3550 3300 3600
Wire Wire Line
	3300 3900 3300 3950
Text Label 3300 4250 3    50   ~ 0
LED_IR
Wire Notes Line
	2700 3250 2700 4650
Wire Notes Line
	2700 4650 4050 4650
Wire Notes Line
	4050 4650 4050 3250
Wire Notes Line
	4050 3250 2700 3250
Text Label 7050 4900 3    50   ~ 0
LED_IR
Wire Wire Line
	7050 4800 7050 4900
Text Label 2650 6600 2    50   ~ 0
SWDIO
Text Label 2650 6800 2    50   ~ 0
SWDCLK
Text Label 2650 7000 2    50   ~ 0
SWO
Wire Wire Line
	9750 2900 9850 2900
Connection ~ 9850 2900
Wire Wire Line
	9950 2900 9850 2900
$Comp
L power:GND #PWR0132
U 1 1 5DC75B40
P 10550 2350
F 0 "#PWR0132" H 10550 2100 50  0001 C CNN
F 1 "GND" H 10555 2177 50  0000 C CNN
F 2 "" H 10550 2350 50  0001 C CNN
F 3 "" H 10550 2350 50  0001 C CNN
	1    10550 2350
	1    0    0    -1  
$EndComp
NoConn ~ 2000 5050
NoConn ~ 2000 5450
Wire Wire Line
	8550 3500 9800 3500
Wire Wire Line
	8450 3600 9800 3600
Wire Wire Line
	1050 5150 2000 5150
Wire Wire Line
	1550 5350 2000 5350
$Comp
L power:GND #PWR0108
U 1 1 5E011071
P 1550 5650
F 0 "#PWR0108" H 1550 5400 50  0001 C CNN
F 1 "GND" H 1555 5477 50  0000 C CNN
F 2 "" H 1550 5650 50  0001 C CNN
F 3 "" H 1550 5650 50  0001 C CNN
	1    1550 5650
	1    0    0    -1  
$EndComp
$Comp
L power:GND #PWR0109
U 1 1 5E017DEB
P 1050 5650
F 0 "#PWR0109" H 1050 5400 50  0001 C CNN
F 1 "GND" H 1055 5477 50  0000 C CNN
F 2 "" H 1050 5650 50  0001 C CNN
F 3 "" H 1050 5650 50  0001 C CNN
	1    1050 5650
	1    0    0    -1  
$EndComp
Wire Wire Line
	1050 5350 1050 5150
$Comp
L Device:C C21
U 1 1 5DBA6F0B
P 1050 5500
F 0 "C21" H 1165 5546 50  0000 L CNN
F 1 "330pF" H 1165 5455 50  0000 L CNN
F 2 "Capacitor_SMD:C_0402_1005Metric" H 1088 5350 50  0001 C CNN
F 3 "~" H 1050 5500 50  0001 C CNN
F 4 "GCM1555C1H331FA16D" H 1050 5500 50  0001 C CNN "MPN"
F 5 "Capacitor, HQ NP0, ±5%" H 1050 5500 50  0001 C CNN "Description"
	1    1050 5500
	1    0    0    -1  
$EndComp
$Comp
L Connector:Conn_01x01_Female J10
U 1 1 5E3119F0
P 2850 7000
F 0 "J10" H 2878 7026 50  0000 L CNN
F 1 "SWO" H 2878 6935 50  0000 L CNN
F 2 "TestPoint:TestPoint_Pad_D1.5mm" H 2850 7000 50  0001 C CNN
F 3 "~" H 2850 7000 50  0001 C CNN
F 4 "SWD Pin" H 2850 7000 50  0001 C CNN "Description"
F 5 "~" H 2850 7000 50  0001 C CNN "MPN"
	1    2850 7000
	1    0    0    -1  
$EndComp
$Comp
L Connector:Conn_01x01_Female J9
U 1 1 5E310D00
P 2850 6800
F 0 "J9" H 2878 6826 50  0000 L CNN
F 1 "SWD_CLK" H 2878 6735 50  0000 L CNN
F 2 "TestPoint:TestPoint_Pad_D1.5mm" H 2850 6800 50  0001 C CNN
F 3 "~" H 2850 6800 50  0001 C CNN
F 4 "SWD Pin" H 2850 6800 50  0001 C CNN "Description"
F 5 "~" H 2850 6800 50  0001 C CNN "MPN"
	1    2850 6800
	1    0    0    -1  
$EndComp
$Comp
L Connector:Conn_01x01_Female J8
U 1 1 5E3102A4
P 2850 6600
F 0 "J8" H 2878 6626 50  0000 L CNN
F 1 "SWD_IO" H 2878 6535 50  0000 L CNN
F 2 "TestPoint:TestPoint_Pad_D1.5mm" H 2850 6600 50  0001 C CNN
F 3 "~" H 2850 6600 50  0001 C CNN
F 4 "SWD Pin" H 2850 6600 50  0001 C CNN "Description"
F 5 "~" H 2850 6600 50  0001 C CNN "MPN"
	1    2850 6600
	1    0    0    -1  
$EndComp
$Comp
L Device:R_US R4
U 1 1 5E2B1E9A
P 3300 4100
F 0 "R4" H 3368 4146 50  0000 L CNN
F 1 "150" H 3368 4055 50  0000 L CNN
F 2 "Resistor_SMD:R_0402_1005Metric" V 3340 4090 50  0001 C CNN
F 3 "~" H 3300 4100 50  0001 C CNN
F 4 "Resistor, 62.5 mW, ±5%" H 3300 4100 50  0001 C CNN "Description"
F 5 "ERJ-2RKF1500X" H 3300 4100 50  0001 C CNN "MPN"
	1    3300 4100
	1    0    0    -1  
$EndComp
$Comp
L Device:LED_ALT D2
U 1 1 5E2A9A48
P 3300 3750
F 0 "D2" V 3339 3632 50  0000 R CNN
F 1 "IR" V 3248 3632 50  0000 R CNN
F 2 "LED_SMD:LED_0402_1005Metric" H 3300 3750 50  0001 C CNN
F 3 "https://media.osram.info/media/resource/hires/osram-dam-2496195/SFH%204053.pdf" H 3300 3750 50  0001 C CNN
F 4 "LED, Infrared, 15 mA" H 3300 3750 50  0001 C CNN "Description"
F 5 "Q65111A0651" H 3300 3750 50  0001 C CNN "MPN"
	1    3300 3750
	0    -1   -1   0   
$EndComp
$Comp
L Connector_Generic_MountingPin:Conn_01x05_MountingPin J1
U 1 1 5E1210E3
P 2200 5250
F 0 "J1" H 2288 5214 50  0000 L CNN
F 1 "NFC" H 2288 5123 50  0000 L CNN
F 2 "Raybeacon:Molex_51281-0594_1x05_P0.5mm_Horizontal" H 2200 5250 50  0001 C CNN
F 3 "~" H 2200 5250 50  0001 C CNN
F 4 "Connector, NFC FPC" H 2200 5250 50  0001 C CNN "Description"
F 5 "51281-0594" H 2200 5250 50  0001 C CNN "MPN"
	1    2200 5250
	1    0    0    -1  
$EndComp
$Comp
L Connector:Conn_01x01_Female J7
U 1 1 5DD17F8F
P 3400 5650
F 0 "J7" H 3428 5676 50  0000 L CNN
F 1 "USB_GND" H 3428 5585 50  0000 L CNN
F 2 "TestPoint:TestPoint_Pad_1.5x1.5mm" H 3400 5650 50  0001 C CNN
F 3 "~" H 3400 5650 50  0001 C CNN
F 4 "USB Pin" H 3400 5650 50  0001 C CNN "Description"
F 5 "~" H 3400 5650 50  0001 C CNN "MPN"
	1    3400 5650
	1    0    0    -1  
$EndComp
$Comp
L Connector:Conn_01x01_Female J6
U 1 1 5DD15F05
P 3400 5500
F 0 "J6" H 3428 5526 50  0000 L CNN
F 1 "USB_D+" H 3428 5435 50  0000 L CNN
F 2 "TestPoint:TestPoint_Pad_D1.5mm" H 3400 5500 50  0001 C CNN
F 3 "~" H 3400 5500 50  0001 C CNN
F 4 "USB Pin" H 3400 5500 50  0001 C CNN "Description"
F 5 "~" H 3400 5500 50  0001 C CNN "MPN"
	1    3400 5500
	1    0    0    -1  
$EndComp
$Comp
L Connector:Conn_01x01_Female J5
U 1 1 5DD15256
P 3400 5350
F 0 "J5" H 3428 5376 50  0000 L CNN
F 1 "USB_D-" H 3428 5285 50  0000 L CNN
F 2 "TestPoint:TestPoint_Pad_D1.5mm" H 3400 5350 50  0001 C CNN
F 3 "~" H 3400 5350 50  0001 C CNN
F 4 "USB Pin" H 3400 5350 50  0001 C CNN "Description"
F 5 "~" H 3400 5350 50  0001 C CNN "MPN"
	1    3400 5350
	1    0    0    -1  
$EndComp
$Comp
L Connector:Conn_01x01_Female J4
U 1 1 5DD136D1
P 3400 5200
F 0 "J4" H 3428 5226 50  0000 L CNN
F 1 "USB_VBUS" H 3428 5135 50  0000 L CNN
F 2 "TestPoint:TestPoint_Pad_D1.5mm" H 3400 5200 50  0001 C CNN
F 3 "~" H 3400 5200 50  0001 C CNN
F 4 "USB Pin" H 3400 5200 50  0001 C CNN "Description"
F 5 "~" H 3400 5200 50  0001 C CNN "MPN"
	1    3400 5200
	1    0    0    -1  
$EndComp
$Comp
L Device:C C20
U 1 1 5DCE2D5B
P 5750 5400
F 0 "C20" H 5865 5446 50  0000 L CNN
F 1 "4.7uF" H 5865 5355 50  0000 L CNN
F 2 "Capacitor_SMD:C_0603_1608Metric" H 5788 5250 50  0001 C CNN
F 3 "~" H 5750 5400 50  0001 C CNN
F 4 "Capacitor, X7S, ±10%" H 5750 5400 50  0001 C CNN "Description"
F 5 "GCJ188C70J475KE02D" H 5750 5400 50  0001 C CNN "MPN"
	1    5750 5400
	1    0    0    -1  
$EndComp
$Comp
L Raybeacon:nRF52833-QIxx U1
U 1 1 5DB9071D
P 6600 3400
F 0 "U1" H 6600 3450 50  0000 C CNN
F 1 "nRF52833/nRF52840-QIxx" H 6600 3350 50  0000 C CNN
F 2 "Raybeacon:Nordic_AQFN-73-1EP_7x7mm_P0.5mm" H 6400 3350 50  0001 C CNN
F 3 "https://infocenter.nordicsemi.com/pdf/nRF52833_OPS_v0.7.pdf" H 6400 3350 50  0001 C CNN
F 4 "Nordic nRF52833/nRF52840 SoC" H 6600 3400 50  0001 C CNN "Description"
F 5 "NRF52833-QIAA-R" H 6600 3400 50  0001 C CNN "MPN"
	1    6600 3400
	1    0    0    -1  
$EndComp
$Comp
L Connector_Generic:Conn_02x04_Odd_Even J3
U 1 1 5DBE1A78
P 4050 6750
F 0 "J3" H 4100 7067 50  0000 C CNN
F 1 "I/O" H 4100 6976 50  0000 C CNN
F 2 "Connector_PinSocket_1.27mm:PinSocket_2x04_P1.27mm_Vertical" H 4050 6750 50  0001 C CNN
F 3 "~" H 4050 6750 50  0001 C CNN
F 4 "I/O Extension Socket 2x4 p1.27" H 4050 6750 50  0001 C CNN "Description"
F 5 "20021311-00008T1LF" H 4050 6750 50  0001 C CNN "MPN"
	1    4050 6750
	1    0    0    -1  
$EndComp
$Comp
L Device:R_US R3
U 1 1 5DDDBD84
P 2000 4100
F 0 "R3" H 2068 4146 50  0000 L CNN
F 1 "3.48k" H 2068 4055 50  0000 L CNN
F 2 "Resistor_SMD:R_0402_1005Metric" V 2040 4090 50  0001 C CNN
F 3 "~" H 2000 4100 50  0001 C CNN
F 4 "Resistor, 62.5 mW, ±1%" H 2000 4100 50  0001 C CNN "Description"
F 5 "ERJ-2RKF3481X" H 2000 4100 50  0001 C CNN "MPN"
	1    2000 4100
	1    0    0    -1  
$EndComp
$Comp
L Device:R_US R2
U 1 1 5DDDB134
P 1650 4100
F 0 "R2" H 1718 4146 50  0000 L CNN
F 1 "4.22k" H 1718 4055 50  0000 L CNN
F 2 "Resistor_SMD:R_0402_1005Metric" V 1690 4090 50  0001 C CNN
F 3 "~" H 1650 4100 50  0001 C CNN
F 4 "Resistor, 62.5 mW, ±1%" H 1650 4100 50  0001 C CNN "Description"
F 5 "ERJ-2RKF4221X" H 1650 4100 50  0001 C CNN "MPN"
	1    1650 4100
	1    0    0    -1  
$EndComp
$Comp
L Device:R_US R1
U 1 1 5DDDA470
P 1300 4100
F 0 "R1" H 1368 4146 50  0000 L CNN
F 1 "1.47k" H 1368 4055 50  0000 L CNN
F 2 "Resistor_SMD:R_0402_1005Metric" V 1340 4090 50  0001 C CNN
F 3 "~" H 1300 4100 50  0001 C CNN
F 4 "Resistor, 62.5 mW, ±1%" H 1300 4100 50  0001 C CNN "Description"
F 5 "ERJ-2RKF1471X" H 1300 4100 50  0001 C CNN "MPN"
	1    1300 4100
	1    0    0    -1  
$EndComp
$Comp
L Device:LED_ARGB D1
U 1 1 5DD9C02D
P 1650 3750
F 0 "D1" V 1696 3420 50  0000 R CNN
F 1 "RGB" V 1605 3420 50  0000 R CNN
F 2 "Raybeacon:LED_RGB_0404" H 1650 3700 50  0001 C CNN
F 3 "https://katalog.we-online.com/led/datasheet/150044M155260.pdf" H 1650 3700 50  0001 C CNN
F 4 "LED, RGB, 5 mA" H 1650 3750 50  0001 C CNN "Description"
F 5 "150044M155260" H 1650 3750 50  0001 C CNN "MPN"
	1    1650 3750
	0    -1   -1   0   
$EndComp
$Comp
L Switch:SW_Push SW2
U 1 1 5DD95E7F
P 1550 2750
F 0 "SW2" H 1550 3035 50  0000 C CNN
F 1 "SW_Push" H 1550 2944 50  0000 C CNN
F 2 "Button_Switch_SMD:SW_Push_1P1T_NO_CK_KMR2" H 1550 2950 50  0001 C CNN
F 3 "~" H 1550 2950 50  0001 C CNN
F 4 "Push button, KMR series" H 1550 2750 50  0001 C CNN "Description"
F 5 "KMR621NGLFS" H 1550 2750 50  0001 C CNN "MPN"
	1    1550 2750
	1    0    0    -1  
$EndComp
$Comp
L Switch:SW_Push SW1
U 1 1 5DD952DA
P 1550 2350
F 0 "SW1" H 1550 2635 50  0000 C CNN
F 1 "SW_Push" H 1550 2544 50  0000 C CNN
F 2 "Button_Switch_SMD:SW_Push_1P1T_NO_CK_KMR2" H 1550 2550 50  0001 C CNN
F 3 "~" H 1550 2550 50  0001 C CNN
F 4 "Push button, KMR series" H 1550 2350 50  0001 C CNN "Description"
F 5 "KMR621NGLFS" H 1550 2350 50  0001 C CNN "MPN"
	1    1550 2350
	1    0    0    -1  
$EndComp
$Comp
L Device:L L5
U 1 1 5DD83EC7
P 10100 2900
F 0 "L5" V 10290 2900 50  0000 C CNN
F 1 "0Ω" V 10199 2900 50  0000 C CNN
F 2 "Inductor_SMD:L_0402_1005Metric" H 10100 2900 50  0001 C CNN
F 3 "~" H 10100 2900 50  0001 C CNN
F 4 "Zero Ohm resistor" H 10100 2900 50  0001 C CNN "Description"
F 5 "AC0402FR-070RL" H 10100 2900 50  0001 C CNN "MPN"
	1    10100 2900
	0    -1   1    0   
$EndComp
$Comp
L Connector_Generic:Conn_02x03_Odd_Even J2
U 1 1 5DD60871
P 1650 6800
F 0 "J2" H 1700 7117 50  0000 C CNN
F 1 "SWD" H 1700 7026 50  0000 C CNN
F 2 "Connector:Tag-Connect_TC2030-IDC-NL_2x03_P1.27mm_Vertical" H 1650 6800 50  0001 C CNN
F 3 "http://www.tag-connect.com/Materials/TC2030-IDC-NL.pdf" H 1650 6800 50  0001 C CNN
F 4 "Connector, Tag-Connect 2030 NL" H 1650 6800 50  0001 C CNN "Description"
F 5 "~" H 1650 6800 50  0001 C CNN "MPN"
	1    1650 6800
	1    0    0    -1  
$EndComp
$Comp
L Device:Battery_Cell BT1
U 1 1 5DCB9441
P 1500 1350
F 0 "BT1" H 1618 1446 50  0000 L CNN
F 1 "CR2032" H 1618 1355 50  0000 L CNN
F 2 "Raybeacon:BatteryHolder_Linx_BAT-HLD-001-THM" V 1500 1410 50  0001 C CNN
F 3 "https://linxtechnologies.com/wp/wp-content/uploads/bat-hld-001-thm.pdf" V 1500 1410 50  0001 C CNN
F 4 "Connector, CR2032/2025" H 1500 1350 50  0001 C CNN "Description"
F 5 "BAT-HLD-001-THM" H 1500 1350 50  0001 C CNN "MPN"
	1    1500 1350
	1    0    0    -1  
$EndComp
$Comp
L Device:L L3
U 1 1 5DC3850D
P 5900 1400
F 0 "L3" H 5856 1354 50  0000 R CNN
F 1 "10uH" H 5856 1445 50  0000 R CNN
F 2 "Inductor_SMD:L_0603_1608Metric" H 5900 1400 50  0001 C CNN
F 3 "~" H 5900 1400 50  0001 C CNN
F 4 "Chip inductor, IDC min = 50 mA, ±20%" H 5900 1400 50  0001 C CNN "Description"
F 5 "KLZ1608MHR100WTD25" H 5900 1400 50  0001 C CNN "MPN"
	1    5900 1400
	1    0    0    1   
$EndComp
$Comp
L Device:L L4
U 1 1 5DC37B24
P 5900 1100
F 0 "L4" H 5856 1054 50  0000 R CNN
F 1 "15nH" H 5856 1145 50  0000 R CNN
F 2 "Inductor_SMD:L_0402_1005Metric" H 5900 1100 50  0001 C CNN
F 3 "~" H 5900 1100 50  0001 C CNN
F 4 "High frequency chip inductor ±10%" H 5900 1100 50  0001 C CNN "Description"
F 5 "MLK1005S15NJTD25" H 5900 1100 50  0001 C CNN "MPN"
	1    5900 1100
	1    0    0    1   
$EndComp
$Comp
L Device:C C15
U 1 1 5DC37668
P 6650 1250
F 0 "C15" H 6765 1296 50  0000 L CNN
F 1 "47nF" H 6765 1205 50  0000 L CNN
F 2 "Capacitor_SMD:C_0402_1005Metric" H 6688 1100 50  0001 C CNN
F 3 "~" H 6650 1250 50  0001 C CNN
F 4 "Capacitor, X7R, ±10%" H 6650 1250 50  0001 C CNN "Description"
F 5 "GCM155R71E473KA55D" H 6650 1250 50  0001 C CNN "MPN"
	1    6650 1250
	1    0    0    -1  
$EndComp
$Comp
L Device:C C14
U 1 1 5DC36FBF
P 6250 1250
F 0 "C14" H 6365 1296 50  0000 L CNN
F 1 "1.0uF" H 6365 1205 50  0000 L CNN
F 2 "Capacitor_SMD:C_0603_1608Metric" H 6288 1100 50  0001 C CNN
F 3 "~" H 6250 1250 50  0001 C CNN
F 4 "Capacitor, X7R, ±10%" H 6250 1250 50  0001 C CNN "Description"
F 5 "GCM188R71C105KA64D" H 6250 1250 50  0001 C CNN "MPN"
	1    6250 1250
	1    0    0    -1  
$EndComp
$Comp
L Device:C C17
U 1 1 5DC10887
P 3400 2750
F 0 "C17" V 3148 2750 50  0000 C CNN
F 1 "12pF" V 3239 2750 50  0000 C CNN
F 2 "Capacitor_SMD:C_0402_1005Metric" H 3438 2600 50  0001 C CNN
F 3 "~" H 3400 2750 50  0001 C CNN
F 4 "Capacitor, NP0, ±2%" H 3400 2750 50  0001 C CNN "Description"
F 5 "GCM1555C1H120GA16D" H 3400 2750 50  0001 C CNN "MPN"
	1    3400 2750
	0    1    1    0   
$EndComp
$Comp
L Device:C C16
U 1 1 5DC0FF45
P 3400 2250
F 0 "C16" V 3148 2250 50  0000 C CNN
F 1 "12pF" V 3239 2250 50  0000 C CNN
F 2 "Capacitor_SMD:C_0402_1005Metric" H 3438 2100 50  0001 C CNN
F 3 "~" H 3400 2250 50  0001 C CNN
F 4 "Capacitor, NP0, ±2%" H 3400 2250 50  0001 C CNN "Description"
F 5 "GCM1555C1H120GA16D" H 3400 2250 50  0001 C CNN "MPN"
	1    3400 2250
	0    1    1    0   
$EndComp
$Comp
L Device:Crystal Y2
U 1 1 5DC0F692
P 3700 2500
F 0 "Y2" V 3654 2631 50  0000 L CNN
F 1 "32.768kHz" V 3745 2631 50  0000 L CNN
F 2 "Crystal:Crystal_SMD_2012-2Pin_2.0x1.2mm" H 3700 2500 50  0001 C CNN
F 3 "~" H 3700 2500 50  0001 C CNN
F 4 "XTAL, 32.768 kHz, CI=9 pF, tol. ±50 ppm" H 3700 2500 50  0001 C CNN "Description"
F 5 "ECS-.327-9-12QS-TR" H 3700 2500 50  0001 C CNN "MPN"
	1    3700 2500
	0    1    1    0   
$EndComp
$Comp
L Device:C C5
U 1 1 5DC0BE57
P 4500 1700
F 0 "C5" H 4615 1746 50  0000 L CNN
F 1 "100nF" H 4615 1655 50  0000 L CNN
F 2 "Capacitor_SMD:C_0402_1005Metric" H 4538 1550 50  0001 C CNN
F 3 "~" H 4500 1700 50  0001 C CNN
F 4 "Capacitor, X7R, ±10%" H 4500 1700 50  0001 C CNN "Description"
F 5 "GCM155R71C104KA55J" H 4500 1700 50  0001 C CNN "MPN"
	1    4500 1700
	1    0    0    -1  
$EndComp
$Comp
L Device:C C6
U 1 1 5DC0803A
P 4400 4400
F 0 "C6" H 4515 4446 50  0000 L CNN
F 1 "4.7uF" H 4515 4355 50  0000 L CNN
F 2 "Capacitor_SMD:C_0603_1608Metric" H 4438 4250 50  0001 C CNN
F 3 "~" H 4400 4400 50  0001 C CNN
F 4 "Capacitor, X7S, ±10%" H 4400 4400 50  0001 C CNN "Description"
F 5 "GCJ188C70J475KE02D" H 4400 4400 50  0001 C CNN "MPN"
	1    4400 4400
	1    0    0    -1  
$EndComp
$Comp
L Device:C C19
U 1 1 5DC00B87
P 4950 4400
F 0 "C19" H 5065 4446 50  0000 L CNN
F 1 "4.7uF" H 5065 4355 50  0000 L CNN
F 2 "Capacitor_SMD:C_0603_1608Metric" H 4988 4250 50  0001 C CNN
F 3 "~" H 4950 4400 50  0001 C CNN
F 4 "Capacitor, X7S, ±10%" H 4950 4400 50  0001 C CNN "Description"
F 5 "GCJ188C70J475KE02D" H 4950 4400 50  0001 C CNN "MPN"
	1    4950 4400
	1    0    0    -1  
$EndComp
$Comp
L Device:C C7
U 1 1 5DBFD7DB
P 6750 5400
F 0 "C7" H 6865 5446 50  0000 L CNN
F 1 "100nF" H 6865 5355 50  0000 L CNN
F 2 "Capacitor_SMD:C_0402_1005Metric" H 6788 5250 50  0001 C CNN
F 3 "~" H 6750 5400 50  0001 C CNN
F 4 "Capacitor, X7R, ±10%" H 6750 5400 50  0001 C CNN "Description"
F 5 "GCM155R71C104KA55J" H 6750 5400 50  0001 C CNN "MPN"
	1    6750 5400
	1    0    0    -1  
$EndComp
$Comp
L Device:C C1
U 1 1 5DBE1AC0
P 9250 1850
F 0 "C1" V 8998 1850 50  0000 C CNN
F 1 "12pF" V 9089 1850 50  0000 C CNN
F 2 "Capacitor_SMD:C_0402_1005Metric" H 9288 1700 50  0001 C CNN
F 3 "~" H 9250 1850 50  0001 C CNN
F 4 "Capacitor, NP0, ±2%" H 9250 1850 50  0001 C CNN "Description"
F 5 "GCM1555C1H120GA16D" H 9250 1850 50  0001 C CNN "MPN"
	1    9250 1850
	0    1    1    0   
$EndComp
$Comp
L Device:C C2
U 1 1 5DBE1248
P 9250 1350
F 0 "C2" V 8998 1350 50  0000 C CNN
F 1 "12pF" V 9089 1350 50  0000 C CNN
F 2 "Capacitor_SMD:C_0402_1005Metric" H 9288 1200 50  0001 C CNN
F 3 "~" H 9250 1350 50  0001 C CNN
F 4 "Capacitor, NP0, ±2%" H 9250 1350 50  0001 C CNN "Description"
F 5 "GCM1555C1H120GA16D" H 9250 1350 50  0001 C CNN "MPN"
	1    9250 1350
	0    1    1    0   
$EndComp
$Comp
L Device:Crystal_GND24 Y1
U 1 1 5DBDF7B2
P 8650 1600
F 0 "Y1" V 8450 1800 50  0000 L CNN
F 1 "32MHz" V 8550 1800 50  0000 L CNN
F 2 "Crystal:Crystal_SMD_2016-4Pin_2.0x1.6mm" H 8650 1600 50  0001 C CNN
F 3 "~" H 8650 1600 50  0001 C CNN
F 4 "CX2016DB32000D0WZRC1" H 8650 1600 50  0001 C CNN "MPN"
F 5 "XTAL, 32 MHz, Cl=8 pF, tol. ±40 ppm" H 8650 1600 50  0001 C CNN "Description"
	1    8650 1600
	0    1    1    0   
$EndComp
$Comp
L Device:C C10
U 1 1 5DBCB6DA
P 9000 2300
F 0 "C10" H 8885 2254 50  0000 R CNN
F 1 "N.C." H 8885 2345 50  0000 R CNN
F 2 "Capacitor_SMD:C_0402_1005Metric" H 9038 2150 50  0001 C CNN
F 3 "~" H 9000 2300 50  0001 C CNN
F 4 "~" H 9000 2300 50  0001 C CNN "MPN"
F 5 "Tuning capacitor, NON MOUNTABLE" H 9000 2300 50  0001 C CNN "Description"
	1    9000 2300
	-1   0    0    1   
$EndComp
$Comp
L Device:C C11
U 1 1 5DBCA86C
P 8500 2300
F 0 "C11" H 8385 2254 50  0000 R CNN
F 1 "100pF" H 8385 2345 50  0000 R CNN
F 2 "Capacitor_SMD:C_0402_1005Metric" H 8538 2150 50  0001 C CNN
F 3 "~" H 8500 2300 50  0001 C CNN
F 4 "Capacitor, NP0, ±5%" H 8500 2300 50  0001 C CNN "Description"
F 5 "GCM1555C1H101JA16D" H 8500 2300 50  0001 C CNN "MPN"
	1    8500 2300
	-1   0    0    1   
$EndComp
$Comp
L Device:C C8
U 1 1 5DBB2C2A
P 8850 4750
F 0 "C8" H 8965 4796 50  0000 L CNN
F 1 "100nF" H 8965 4705 50  0000 L CNN
F 2 "Capacitor_SMD:C_0402_1005Metric" H 8888 4600 50  0001 C CNN
F 3 "~" H 8850 4750 50  0001 C CNN
F 4 "Capacitor, X7R, ±10%" H 8850 4750 50  0001 C CNN "Description"
F 5 "GCM155R71C104KA55J" H 8850 4750 50  0001 C CNN "MPN"
	1    8850 4750
	1    0    0    -1  
$EndComp
$Comp
L Device:C C9
U 1 1 5DBB2685
P 8850 3850
F 0 "C9" H 8965 3896 50  0000 L CNN
F 1 "820pF" H 8965 3805 50  0000 L CNN
F 2 "Capacitor_SMD:C_0402_1005Metric" H 8888 3700 50  0001 C CNN
F 3 "~" H 8850 3850 50  0001 C CNN
F 4 "Capacitor, NP0, ±5%" H 8850 3850 50  0001 C CNN "Description"
F 5 "GCM1555C1H821JA16D" H 8850 3850 50  0001 C CNN "MPN"
	1    8850 3850
	1    0    0    -1  
$EndComp
$Comp
L Device:C C18
U 1 1 5DBA6747
P 1550 5500
F 0 "C18" H 1665 5546 50  0000 L CNN
F 1 "330pF" H 1665 5455 50  0000 L CNN
F 2 "Capacitor_SMD:C_0402_1005Metric" H 1588 5350 50  0001 C CNN
F 3 "~" H 1550 5500 50  0001 C CNN
F 4 "GCM1555C1H331FA16D" H 1550 5500 50  0001 C CNN "MPN"
F 5 "Capacitor, HQ NP0, ±5%" H 1550 5500 50  0001 C CNN "Description"
	1    1550 5500
	1    0    0    -1  
$EndComp
$Comp
L Device:L L2
U 1 1 5DB9D7CC
P 9600 2900
F 0 "L2" V 9790 2900 50  0000 C CNN
F 1 "0Ω" V 9699 2900 50  0000 C CNN
F 2 "Inductor_SMD:L_0402_1005Metric" H 9600 2900 50  0001 C CNN
F 3 "~" H 9600 2900 50  0001 C CNN
F 4 "Zero Ohm resistor" H 9600 2900 50  0001 C CNN "Description"
F 5 "AC0402FR-070RL" H 9600 2900 50  0001 C CNN "MPN"
	1    9600 2900
	0    -1   -1   0   
$EndComp
$Comp
L Device:C C4
U 1 1 5DB9C856
P 9350 3050
F 0 "C4" H 9465 3096 50  0000 L CNN
F 1 "0.5pF" H 9465 3005 50  0000 L CNN
F 2 "Capacitor_SMD:C_0402_1005Metric" H 9388 2900 50  0001 C CNN
F 3 "~" H 9350 3050 50  0001 C CNN
F 4 "Capacitor, HQ NP0, ±5%" H 9350 3050 50  0001 C CNN "Description"
F 5 "GCQ1555C1HR50WB01D" H 9350 3050 50  0001 C CNN "MPN"
	1    9350 3050
	1    0    0    -1  
$EndComp
$Comp
L Device:L L1
U 1 1 5DB9BD1D
P 9100 2900
F 0 "L1" V 9290 2900 50  0000 C CNN
F 1 "4.7nH" V 9199 2900 50  0000 C CNN
F 2 "Inductor_SMD:L_0402_1005Metric" H 9100 2900 50  0001 C CNN
F 3 "~" H 9100 2900 50  0001 C CNN
F 4 "High frequency chip inductor ±5%" H 9100 2900 50  0001 C CNN "Description"
F 5 "LQW15AN4N7C0ZD" H 9100 2900 50  0001 C CNN "MPN"
	1    9100 2900
	0    1    -1   0   
$EndComp
$Comp
L Device:C C13
U 1 1 5DB9809E
P 5150 1700
F 0 "C13" H 5265 1746 50  0000 L CNN
F 1 "1.0uF" H 5265 1655 50  0000 L CNN
F 2 "Capacitor_SMD:C_0603_1608Metric" H 5188 1550 50  0001 C CNN
F 3 "~" H 5150 1700 50  0001 C CNN
F 4 "Capacitor, X7R, ±10%" H 5150 1700 50  0001 C CNN "Description"
F 5 "GCM188R71C105KA64D" H 5150 1700 50  0001 C CNN "MPN"
	1    5150 1700
	1    0    0    -1  
$EndComp
$Comp
L Device:C C12
U 1 1 5DB94ECA
P 7700 1700
F 0 "C12" H 7815 1746 50  0000 L CNN
F 1 "100nF" H 7815 1655 50  0000 L CNN
F 2 "Capacitor_SMD:C_0402_1005Metric" H 7738 1550 50  0001 C CNN
F 3 "~" H 7700 1700 50  0001 C CNN
F 4 "Capacitor, X7R, ±10%" H 7700 1700 50  0001 C CNN "Description"
F 5 "GCM155R71C104KA55J" H 7700 1700 50  0001 C CNN "MPN"
	1    7700 1700
	1    0    0    -1  
$EndComp
Text Notes 8050 5350 0    50   ~ 0
Breadboard EI/O PCB
Wire Notes Line
	7950 6400 11050 6400
Wire Notes Line
	11050 5200 11050 6400
Wire Notes Line
	7950 5200 11050 5200
Wire Notes Line
	7950 6400 7950 5200
Wire Wire Line
	8450 6050 8600 6050
$Comp
L power:GND #PWR011
U 1 1 5DDDABA2
P 8450 6050
F 0 "#PWR011" H 8450 5800 50  0001 C CNN
F 1 "GND" H 8455 5877 50  0000 C CNN
F 2 "" H 8450 6050 50  0001 C CNN
F 3 "" H 8450 6050 50  0001 C CNN
	1    8450 6050
	1    0    0    -1  
$EndComp
Wire Wire Line
	8450 5750 8600 5750
$Comp
L power:VDD #PWR010
U 1 1 5DDD2B9C
P 8450 5750
F 0 "#PWR010" H 8450 5600 50  0001 C CNN
F 1 "VDD" H 8467 5923 50  0000 C CNN
F 2 "" H 8450 5750 50  0001 C CNN
F 3 "" H 8450 5750 50  0001 C CNN
	1    8450 5750
	1    0    0    -1  
$EndComp
Text Label 8600 5950 2    50   ~ 0
GPIO_P0.12
Text Label 8600 5850 2    50   ~ 0
GPIO_P0.26
Text Label 9100 6050 0    50   ~ 0
GPIO_P1.09
Text Label 9100 5950 0    50   ~ 0
GPIO_P0.08
Text Label 9100 5850 0    50   ~ 0
GPIO_P0.06
Text Label 9100 5750 0    50   ~ 0
GPIO_P0.04_AIN2
$Comp
L Connector_Generic:Conn_02x04_Odd_Even EJ2
U 1 1 5DDC39A6
P 8800 5850
F 0 "EJ2" H 8850 6167 50  0000 C CNN
F 1 "EI/O" H 8850 6076 50  0000 C CNN
F 2 "Connector_PinHeader_1.27mm:PinHeader_2x04_P1.27mm_Vertical" H 8800 5850 50  0001 C CNN
F 3 "~" H 8800 5850 50  0001 C CNN
F 4 "I/O Breadboard Header 2x4 p1.27" H 8800 5850 50  0001 C CNN "Description"
F 5 "~" H 8800 5850 50  0001 C CNN "MPN"
	1    8800 5850
	1    0    0    -1  
$EndComp
Wire Wire Line
	10500 6150 10350 6150
$Comp
L power:GND #PWR09
U 1 1 5E1A9DC9
P 10350 6150
F 0 "#PWR09" H 10350 5900 50  0001 C CNN
F 1 "GND" H 10355 5977 50  0000 C CNN
F 2 "" H 10350 6150 50  0001 C CNN
F 3 "" H 10350 6150 50  0001 C CNN
	1    10350 6150
	1    0    0    -1  
$EndComp
Wire Wire Line
	10500 5450 10350 5450
Text Label 10500 6050 2    50   ~ 0
GPIO_P1.09
Text Label 10500 5950 2    50   ~ 0
GPIO_P0.26
Text Label 10500 5850 2    50   ~ 0
GPIO_P0.12
Text Label 10500 5750 2    50   ~ 0
GPIO_P0.08
Text Label 10500 5650 2    50   ~ 0
GPIO_P0.06
Text Label 10500 5550 2    50   ~ 0
GPIO_P0.04_AIN2
$Comp
L power:VDD #PWR08
U 1 1 5E19FC27
P 10350 5450
F 0 "#PWR08" H 10350 5300 50  0001 C CNN
F 1 "VDD" H 10367 5623 50  0000 C CNN
F 2 "" H 10350 5450 50  0001 C CNN
F 3 "" H 10350 5450 50  0001 C CNN
	1    10350 5450
	1    0    0    -1  
$EndComp
$Comp
L Connector_Generic:Conn_01x08 EJ1
U 1 1 5E19DFB4
P 10700 5750
F 0 "EJ1" H 10780 5742 50  0000 L CNN
F 1 "EI/O" H 10780 5651 50  0000 L CNN
F 2 "Connector_PinHeader_2.54mm:PinHeader_1x08_P2.54mm_Vertical" H 10700 5750 50  0001 C CNN
F 3 "~" H 10700 5750 50  0001 C CNN
F 4 "I/O Breadboard Header 1x8 p2.54" H 10700 5750 50  0001 C CNN "Description"
F 5 "~" H 10700 5750 50  0001 C CNN "MPN"
	1    10700 5750
	1    0    0    -1  
$EndComp
$Comp
L Device:C C3
U 1 1 5DB9B464
P 8850 3050
F 0 "C3" H 8965 3096 50  0000 L CNN
F 1 "0.8pF" H 8965 3005 50  0000 L CNN
F 2 "Capacitor_SMD:C_0402_1005Metric" H 8888 2900 50  0001 C CNN
F 3 "~" H 8850 3050 50  0001 C CNN
F 4 "Capacitor, HQ NP0, ±5%" H 8850 3050 50  0001 C CNN "Description"
F 5 "GCQ1555C1HR80WB01D" H 8850 3050 50  0001 C CNN "MPN"
	1    8850 3050
	1    0    0    -1  
$EndComp
$Comp
L Device:C C22
U 1 1 5DD851B7
P 9850 2750
F 0 "C22" H 9735 2704 50  0000 R CNN
F 1 "3.3pF" H 9735 2795 50  0000 R CNN
F 2 "Capacitor_SMD:C_0402_1005Metric" H 9888 2600 50  0001 C CNN
F 3 "~" H 9850 2750 50  0001 C CNN
F 4 "GCQ1555C1H3R3WB01D" H 9850 2750 50  0001 C CNN "MPN"
F 5 "Capacitor, HQ NP0, ±5%" H 9850 2750 50  0001 C CNN "Description"
	1    9850 2750
	-1   0    0    1   
$EndComp
$Comp
L Device:Antenna_Chip AE1
U 1 1 5DB9E580
P 10650 1850
F 0 "AE1" H 10830 1977 50  0000 L CNN
F 1 "2.45GHz" H 10830 1886 50  0000 L CNN
F 2 "Raybeacon:Antenna_Johanson_2450AT42E0100" H 10550 2025 50  0001 C CNN
F 3 "https://www.johansontechnology.com/datasheets/2450AT42E010B/2450AT42E010B.pdf" H 10550 2025 50  0001 C CNN
F 4 "2450AT42E010BE" H 10650 1850 50  0001 C CNN "MPN"
F 5 "Chip-antenna, 2.4GHz, zero clearance" H 10650 1850 50  0001 C CNN "Description"
	1    10650 1850
	-1   0    0    -1  
$EndComp
Connection ~ 9350 2900
Wire Wire Line
	9850 2350 10050 2350
Wire Wire Line
	10350 2350 10550 2350
Connection ~ 10350 2900
Wire Wire Line
	10250 2900 10350 2900
Wire Wire Line
	10350 2350 10350 2600
Wire Wire Line
	10750 1950 10750 2900
Wire Wire Line
	10350 2900 10750 2900
$Comp
L Device:L L23
U 1 1 5E10F225
P 10350 2750
F 0 "L23" H 10403 2796 50  0000 L CNN
F 1 "1.2nH" H 10403 2705 50  0000 L CNN
F 2 "Inductor_SMD:L_0402_1005Metric" H 10350 2750 50  0001 C CNN
F 3 "~" H 10350 2750 50  0001 C CNN
F 4 "High frequency (Std Q) chip inductor ±5%" H 10350 2750 50  0001 C CNN "Description"
F 5 "LQG15HZ1N2S02D" H 10350 2750 50  0001 C CNN "MPN"
	1    10350 2750
	1    0    0    -1  
$EndComp
Text Notes 1700 3550 0    50   ~ 0
1 mA MAX
Text Notes 3350 3550 0    50   ~ 0
5 mA MAX
Wire Wire Line
	6550 4800 6550 4900
NoConn ~ 8000 3900
Text Label 1450 6800 2    50   ~ 0
SW2_RESET
$EndSCHEMATC
