EESchema Schematic File Version 4
EELAYER 30 0
EELAYER END
$Descr A4 11693 8268
encoding utf-8
Sheet 1 1
Title "rayBeacon Slice: Harvester"
Date ""
Rev "0.9"
Comp "Raytrails, Pvt."
Comment1 "Copyright (c) 2020"
Comment2 "License: BSD"
Comment3 ""
Comment4 ""
$EndDescr
$Comp
L Device:R_US R4
U 1 1 5DE54B70
P 7900 2250
F 0 "R4" H 7832 2204 50  0000 R CNN
F 1 "10M" H 7832 2295 50  0000 R CNN
F 2 "Resistor_SMD:R_0603_1608Metric" V 7940 2240 50  0001 C CNN
F 3 "~" H 7900 2250 50  0001 C CNN
F 4 "Resistor, ±1%" H 7900 2250 50  0001 C CNN "Description"
F 5 "CRCW060310M0FKEA" H 7900 2250 50  0001 C CNN "MPN"
	1    7900 2250
	-1   0    0    1   
$EndComp
$Comp
L Device:R_US R5
U 1 1 5DE55E2C
P 7900 2550
F 0 "R5" H 7968 2596 50  0000 L CNN
F 1 "2.2M" H 7968 2505 50  0000 L CNN
F 2 "Resistor_SMD:R_0603_1608Metric" V 7940 2540 50  0001 C CNN
F 3 "~" H 7900 2550 50  0001 C CNN
F 4 "Resistor, ±1%" H 7900 2550 50  0001 C CNN "Description"
F 5 "CRCW06032M20FKEA" H 7900 2550 50  0001 C CNN "MPN"
	1    7900 2550
	1    0    0    -1  
$EndComp
$Comp
L Device:R_US R6
U 1 1 5DE56842
P 7900 2850
F 0 "R6" H 7968 2896 50  0000 L CNN
F 1 "8.06M" H 7968 2805 50  0000 L CNN
F 2 "Resistor_SMD:R_0603_1608Metric" V 7940 2840 50  0001 C CNN
F 3 "~" H 7900 2850 50  0001 C CNN
F 4 "Resistor, ±1%" H 7900 2850 50  0001 C CNN "Description"
F 5 "CRCW06038M06FKEA" H 7900 2850 50  0001 C CNN "MPN"
	1    7900 2850
	1    0    0    -1  
$EndComp
$Comp
L Connector_Generic:Conn_02x04_Odd_Even J2
U 1 1 5DE57262
P 3350 4900
F 0 "J2" H 3400 5217 50  0000 C CNN
F 1 "rayBeacon" H 3400 5126 50  0000 C CNN
F 2 "Connector_PinHeader_1.27mm:PinHeader_2x04_P1.27mm_Vertical" H 3350 4900 50  0001 C CNN
F 3 "~" H 3350 4900 50  0001 C CNN
F 4 "2x4p1.27 header" H 3350 4900 50  0001 C CNN "Description"
F 5 "62200821121" H 3350 4900 50  0001 C CNN "MPN"
	1    3350 4900
	1    0    0    -1  
$EndComp
$Comp
L Connector_Generic:Conn_02x04_Odd_Even J3
U 1 1 5DE588CD
P 3350 5900
F 0 "J3" H 3400 6217 50  0000 C CNN
F 1 "Sliceboard PT" H 3400 6126 50  0000 C CNN
F 2 "Connector_PinSocket_1.27mm:PinSocket_2x04_P1.27mm_Vertical" H 3350 5900 50  0001 C CNN
F 3 "~" H 3350 5900 50  0001 C CNN
F 4 "2x4p1.27 socket" H 3350 5900 50  0001 C CNN "Description"
F 5 "20021311-00008T1LF" H 3350 5900 50  0001 C CNN "MPN"
	1    3350 5900
	1    0    0    -1  
$EndComp
$Comp
L power:+BATT #PWR017
U 1 1 5DE59DC7
P 2900 4450
F 0 "#PWR017" H 2900 4300 50  0001 C CNN
F 1 "+BATT" H 2915 4623 50  0000 C CNN
F 2 "" H 2900 4450 50  0001 C CNN
F 3 "" H 2900 4450 50  0001 C CNN
	1    2900 4450
	1    0    0    -1  
$EndComp
$Comp
L power:+BATT #PWR019
U 1 1 5DE5A486
P 2900 5800
F 0 "#PWR019" H 2900 5650 50  0001 C CNN
F 1 "+BATT" H 2915 5973 50  0000 C CNN
F 2 "" H 2900 5800 50  0001 C CNN
F 3 "" H 2900 5800 50  0001 C CNN
	1    2900 5800
	1    0    0    -1  
$EndComp
$Comp
L power:GND #PWR020
U 1 1 5DE5C92C
P 2900 6100
F 0 "#PWR020" H 2900 5850 50  0001 C CNN
F 1 "GND" H 2905 5927 50  0000 C CNN
F 2 "" H 2900 6100 50  0001 C CNN
F 3 "" H 2900 6100 50  0001 C CNN
	1    2900 6100
	1    0    0    -1  
$EndComp
$Comp
L power:GND #PWR018
U 1 1 5DE5CFF9
P 2900 5100
F 0 "#PWR018" H 2900 4850 50  0001 C CNN
F 1 "GND" H 2905 4927 50  0000 C CNN
F 2 "" H 2900 5100 50  0001 C CNN
F 3 "" H 2900 5100 50  0001 C CNN
	1    2900 5100
	1    0    0    -1  
$EndComp
Text Label 3150 4900 2    50   ~ 0
GPIO_PIN_3
Text Label 3150 5000 2    50   ~ 0
GPIO_PIN_5
Wire Wire Line
	3150 5100 2900 5100
Wire Wire Line
	3150 5800 2900 5800
Wire Wire Line
	3150 6100 2900 6100
Text Label 3650 4800 0    50   ~ 0
GPIO_PIN_2
Text Label 3650 4900 0    50   ~ 0
GPIO_PIN_4
Text Label 3650 5000 0    50   ~ 0
GPIO_PIN_6
Text Label 3650 5100 0    50   ~ 0
GPIO_PIN_8
Text Label 3650 5800 0    50   ~ 0
GPIO_PIN_2
Text Label 3650 5900 0    50   ~ 0
GPIO_PIN_4
Text Label 3650 6000 0    50   ~ 0
GPIO_PIN_6
Text Label 3650 6100 0    50   ~ 0
GPIO_PIN_8
Text Label 3150 5900 2    50   ~ 0
GPIO_PIN_3
Text Label 3150 6000 2    50   ~ 0
GPIO_PIN_5
$Comp
L Device:C C5
U 1 1 5DE622C5
P 7250 2850
F 0 "C5" H 7365 2896 50  0000 L CNN
F 1 "100n" H 7365 2805 50  0000 L CNN
F 2 "Capacitor_SMD:C_0603_1608Metric" H 7288 2700 50  0001 C CNN
F 3 "~" H 7250 2850 50  0001 C CNN
F 4 "Capacitor, X7R, ±5%" H 7250 2850 50  0001 C CNN "Description"
F 5 "C0603C104J4RAC" H 7250 2850 50  0001 C CNN "MPN"
	1    7250 2850
	1    0    0    -1  
$EndComp
$Comp
L Device:C C4
U 1 1 5DE671F9
P 7250 1950
F 0 "C4" H 7365 1996 50  0000 L CNN
F 1 "47u" H 7365 1905 50  0000 L CNN
F 2 "Capacitor_SMD:C_0805_2012Metric" H 7288 1800 50  0001 C CNN
F 3 "~" H 7250 1950 50  0001 C CNN
F 4 "Capacitor, X5R, ±20%" H 7250 1950 50  0001 C CNN "Description"
F 5 "JMK212BBJ476MG-T" H 7250 1950 50  0001 C CNN "MPN"
	1    7250 1950
	1    0    0    -1  
$EndComp
$Comp
L Device:C C3
U 1 1 5DE67722
P 6800 1950
F 0 "C3" H 6915 1996 50  0000 L CNN
F 1 "47u" H 6915 1905 50  0000 L CNN
F 2 "Capacitor_SMD:C_0805_2012Metric" H 6838 1800 50  0001 C CNN
F 3 "~" H 6800 1950 50  0001 C CNN
F 4 "Capacitor, X5R, ±20%" H 6800 1950 50  0001 C CNN "Description"
F 5 "JMK212BBJ476MG-T" H 6800 1950 50  0001 C CNN "MPN"
	1    6800 1950
	1    0    0    -1  
$EndComp
Text Label 6200 2500 0    50   ~ 0
LDO1
Wire Wire Line
	7250 2700 7250 2500
Wire Wire Line
	7250 2500 6100 2500
Text Label 6200 2800 0    50   ~ 0
BATT_CHG
Text Label 6200 2900 0    50   ~ 0
BATT_CONN
Wire Wire Line
	6200 2800 6100 2800
Wire Wire Line
	6200 2900 6100 2900
$Comp
L Jumper:SolderJumper_2_Open JP4
U 1 1 5DE70095
P 4300 4900
F 0 "JP4" H 4300 5000 50  0000 C CNN
F 1 "BT_Charging" H 4300 5100 50  0000 C CNN
F 2 "Jumper:SolderJumper-2_P1.3mm_Open_RoundedPad1.0x1.5mm" H 4300 4900 50  0001 C CNN
F 3 "~" H 4300 4900 50  0001 C CNN
F 4 "Jumper, battery charge status" H 4300 4900 50  0001 C CNN "Description"
F 5 "~" H 4300 4900 50  0001 C CNN "MPN"
	1    4300 4900
	1    0    0    -1  
$EndComp
$Comp
L Jumper:SolderJumper_2_Open JP5
U 1 1 5DE7185C
P 4300 5000
F 0 "JP5" H 4300 4900 50  0000 C CNN
F 1 "BT_Connected" H 4350 4800 50  0000 C CNN
F 2 "Jumper:SolderJumper-2_P1.3mm_Open_RoundedPad1.0x1.5mm" H 4300 5000 50  0001 C CNN
F 3 "~" H 4300 5000 50  0001 C CNN
F 4 "Jumper, battery connection status" H 4300 5000 50  0001 C CNN "Description"
F 5 "~" H 4300 5000 50  0001 C CNN "MPN"
	1    4300 5000
	1    0    0    -1  
$EndComp
Wire Wire Line
	4150 4900 3650 4900
Text Label 4450 4900 0    50   ~ 0
BATT_CHG
Text Label 4450 5000 0    50   ~ 0
BATT_CONN
$Comp
L power:GND #PWR08
U 1 1 5DE74C63
P 5400 3300
F 0 "#PWR08" H 5400 3050 50  0001 C CNN
F 1 "GND" H 5405 3127 50  0000 C CNN
F 2 "" H 5400 3300 50  0001 C CNN
F 3 "" H 5400 3300 50  0001 C CNN
	1    5400 3300
	1    0    0    -1  
$EndComp
Wire Wire Line
	5400 3300 5400 3250
Wire Wire Line
	5400 3250 5300 3250
Wire Wire Line
	5300 3250 5300 3200
Connection ~ 5400 3250
Wire Wire Line
	5400 3250 5400 3200
$Comp
L Device:C C6
U 1 1 5DE7AC84
P 8350 2550
F 0 "C6" H 8465 2596 50  0000 L CNN
F 1 "470n" H 8465 2505 50  0000 L CNN
F 2 "Capacitor_SMD:C_0603_1608Metric" H 8388 2400 50  0001 C CNN
F 3 "~" H 8350 2550 50  0001 C CNN
F 4 "Capacitor, X7R, ±5%" H 8350 2550 50  0001 C CNN "Description"
F 5 "GCM188R71C474JA55D" H 8350 2550 50  0001 C CNN "MPN"
	1    8350 2550
	1    0    0    -1  
$EndComp
Wire Wire Line
	7900 2400 7700 2400
Wire Wire Line
	7700 2400 7700 2200
Wire Wire Line
	7700 2200 6100 2200
Connection ~ 7900 2400
Wire Wire Line
	7900 2700 7600 2700
Wire Wire Line
	7600 2700 7600 2300
Wire Wire Line
	7600 2300 6100 2300
Connection ~ 7900 2700
$Comp
L power:GND #PWR010
U 1 1 5DE7DCBE
P 7700 1800
F 0 "#PWR010" H 7700 1550 50  0001 C CNN
F 1 "GND" H 7705 1627 50  0000 C CNN
F 2 "" H 7700 1800 50  0001 C CNN
F 3 "" H 7700 1800 50  0001 C CNN
	1    7700 1800
	1    0    0    -1  
$EndComp
Wire Wire Line
	7700 1800 7250 1800
Connection ~ 7250 1800
Wire Wire Line
	7250 1800 6800 1800
Wire Wire Line
	8350 2400 7900 2400
$Comp
L power:GND #PWR012
U 1 1 5DE7F949
P 8350 3000
F 0 "#PWR012" H 8350 2750 50  0001 C CNN
F 1 "GND" H 8355 2827 50  0000 C CNN
F 2 "" H 8350 3000 50  0001 C CNN
F 3 "" H 8350 3000 50  0001 C CNN
	1    8350 3000
	1    0    0    -1  
$EndComp
$Comp
L power:GND #PWR011
U 1 1 5DE800CD
P 7900 3000
F 0 "#PWR011" H 7900 2750 50  0001 C CNN
F 1 "GND" H 7905 2827 50  0000 C CNN
F 2 "" H 7900 3000 50  0001 C CNN
F 3 "" H 7900 3000 50  0001 C CNN
	1    7900 3000
	1    0    0    -1  
$EndComp
$Comp
L power:GND #PWR09
U 1 1 5DE80922
P 7250 3000
F 0 "#PWR09" H 7250 2750 50  0001 C CNN
F 1 "GND" H 7255 2827 50  0000 C CNN
F 2 "" H 7250 3000 50  0001 C CNN
F 3 "" H 7250 3000 50  0001 C CNN
	1    7250 3000
	1    0    0    -1  
$EndComp
$Comp
L Device:C C7
U 1 1 5DE83363
P 7700 1350
F 0 "C7" H 7815 1396 50  0000 L CNN
F 1 "1500u" H 7815 1305 50  0000 L CNN
F 2 "Capacitor_Tantalum_SMD:CP_EIA-7343-40_Kemet-Y" H 7738 1200 50  0001 C CNN
F 3 "~" H 7700 1350 50  0001 C CNN
F 4 "Supercap, tantalum, ±20%, 4V" H 7700 1350 50  0001 C CNN "Description"
F 5 "TPSE158K004R0075" H 7700 1350 50  0001 C CNN "MPN"
	1    7700 1350
	1    0    0    -1  
$EndComp
$Comp
L power:GND #PWR015
U 1 1 5DE84567
P 7700 1500
F 0 "#PWR015" H 7700 1250 50  0001 C CNN
F 1 "GND" H 7705 1327 50  0000 C CNN
F 2 "" H 7700 1500 50  0001 C CNN
F 3 "" H 7700 1500 50  0001 C CNN
	1    7700 1500
	1    0    0    -1  
$EndComp
$Comp
L Device:R_US R1
U 1 1 5DE8A480
P 3150 2250
F 0 "R1" H 3218 2296 50  0000 L CNN
F 1 "10M" H 3218 2205 50  0000 L CNN
F 2 "Resistor_SMD:R_0603_1608Metric" V 3190 2240 50  0001 C CNN
F 3 "~" H 3150 2250 50  0001 C CNN
F 4 "Resistor, ±1%" H 3150 2250 50  0001 C CNN "Description"
F 5 "CRCW060310M0FKEA" H 3150 2250 50  0001 C CNN "MPN"
	1    3150 2250
	1    0    0    -1  
$EndComp
$Comp
L Device:R_US R2
U 1 1 5DE8B7FC
P 3150 2550
F 0 "R2" H 3218 2596 50  0000 L CNN
F 1 "2.2M" H 3218 2505 50  0000 L CNN
F 2 "Resistor_SMD:R_0603_1608Metric" V 3190 2540 50  0001 C CNN
F 3 "~" H 3150 2550 50  0001 C CNN
F 4 "Resistor, ±1%" H 3150 2550 50  0001 C CNN "Description"
F 5 "CRCW06032M20FKEA" H 3150 2550 50  0001 C CNN "MPN"
	1    3150 2550
	1    0    0    -1  
$EndComp
$Comp
L Device:R_US R3
U 1 1 5DE8C4AC
P 3150 2850
F 0 "R3" H 3218 2896 50  0000 L CNN
F 1 "8.06M" H 3218 2805 50  0000 L CNN
F 2 "Resistor_SMD:R_0603_1608Metric" V 3190 2840 50  0001 C CNN
F 3 "~" H 3150 2850 50  0001 C CNN
F 4 "Resistor, ±1%" H 3150 2850 50  0001 C CNN "Description"
F 5 "CRCW06038M06FKEA" H 3150 2850 50  0001 C CNN "MPN"
	1    3150 2850
	1    0    0    -1  
$EndComp
Wire Wire Line
	6100 2100 6800 2100
$Comp
L Device:R_US R7
U 1 1 5DE9654F
P 2300 4800
F 0 "R7" V 2095 4800 50  0000 C CNN
F 1 "549R" V 2186 4800 50  0000 C CNN
F 2 "Resistor_SMD:R_0603_1608Metric" V 2340 4790 50  0001 C CNN
F 3 "~" H 2300 4800 50  0001 C CNN
F 4 "Resistor, ±1%, 30mW" H 2300 4800 50  0001 C CNN "Description"
F 5 "CRCW0603549RFKEA" H 2300 4800 50  0001 C CNN "MPN"
	1    2300 4800
	0    1    1    0   
$EndComp
Wire Wire Line
	2450 4800 2500 4800
Wire Wire Line
	2150 4800 2100 4800
Text Label 8100 1200 0    50   ~ 0
BATT
Connection ~ 6800 2100
Wire Wire Line
	6800 2100 7250 2100
Connection ~ 7250 2100
Wire Wire Line
	7250 2100 7900 2100
Text Notes 2100 4950 0    50   ~ 0
I_max=2mA
$Comp
L Jumper:SolderJumper_2_Open JP3
U 1 1 5DEA8CC9
P 2300 4450
F 0 "JP3" H 2300 4655 50  0000 C CNN
F 1 "R_lim_bypass" H 2300 4564 50  0000 C CNN
F 2 "Jumper:SolderJumper-2_P1.3mm_Open_RoundedPad1.0x1.5mm" H 2300 4450 50  0001 C CNN
F 3 "~" H 2300 4450 50  0001 C CNN
F 4 "Jumper, Rlim bypass" H 2300 4450 50  0001 C CNN "Description"
F 5 "~" H 2300 4450 50  0001 C CNN "MPN"
	1    2300 4450
	1    0    0    -1  
$EndComp
Wire Wire Line
	2150 4450 2100 4450
Wire Wire Line
	2100 4450 2100 4800
Wire Wire Line
	2450 4450 2500 4450
Wire Wire Line
	2500 4450 2500 4800
Connection ~ 2500 4800
$Comp
L Device:L L1
U 1 1 5DEB4BEA
P 4550 1900
F 0 "L1" V 4740 1900 50  0000 C CNN
F 1 "22uH" V 4649 1900 50  0000 C CNN
F 2 "Inductor_SMD:L_0805_2012Metric" H 4550 1900 50  0001 C CNN
F 3 "~" H 4550 1900 50  0001 C CNN
F 4 "Inductor, ±20%, I≥120mA" H 4550 1900 50  0001 C CNN "Description"
F 5 "KLZ2012PHR220WTD25" H 4550 1900 50  0001 C CNN "MPN"
	1    4550 1900
	0    -1   -1   0   
$EndComp
Connection ~ 3150 2400
Connection ~ 3150 2700
$Comp
L Device:C C2
U 1 1 5DEC701B
P 3850 2750
F 0 "C2" H 3965 2796 50  0000 L CNN
F 1 "10n" H 3965 2705 50  0000 L CNN
F 2 "Capacitor_SMD:C_0603_1608Metric" H 3888 2600 50  0001 C CNN
F 3 "~" H 3850 2750 50  0001 C CNN
F 4 "Capacitor, C0G, ±1%, 25V" H 3850 2750 50  0001 C CNN "Description"
F 5 "GRM1885C1H103JA01D" H 3850 2750 50  0001 C CNN "MPN"
	1    3850 2750
	1    0    0    -1  
$EndComp
Wire Wire Line
	3850 2500 3850 2600
Wire Wire Line
	3850 2900 3850 3000
Wire Wire Line
	4600 3100 4600 2900
Wire Wire Line
	4600 2900 4700 2900
Text Label 4600 2700 2    50   ~ 0
LDO1_EN
Wire Wire Line
	4600 2700 4700 2700
Text Label 9900 4900 0    50   ~ 0
LDO1_EN
$Comp
L Device:C C1
U 1 1 5DF2BE40
P 2600 1650
F 0 "C1" H 2715 1696 50  0000 L CNN
F 1 "4.7u" H 2715 1605 50  0000 L CNN
F 2 "Capacitor_SMD:C_0603_1608Metric" H 2638 1500 50  0001 C CNN
F 3 "~" H 2600 1650 50  0001 C CNN
F 4 "Capacitor, X5R, ±10%, 25V" H 2600 1650 50  0001 C CNN "Description"
F 5 "GRM188R61E475KE11D" H 2600 1650 50  0001 C CNN "MPN"
	1    2600 1650
	1    0    0    -1  
$EndComp
$Comp
L Device:Solar_Cells SC1
U 1 1 5DF2CA9C
P 2100 1650
F 0 "SC1" H 2208 1696 50  0000 L CNN
F 1 "Source" H 2208 1605 50  0000 L CNN
F 2 "Connector_Wire:SolderWirePad_1x02_P3.81mm_Drill0.8mm" V 2100 1710 50  0001 C CNN
F 3 "~" V 2100 1710 50  0001 C CNN
F 4 "Connector, harvesting source" H 2100 1650 50  0001 C CNN "Description"
F 5 "~" H 2100 1650 50  0001 C CNN "MPN"
	1    2100 1650
	1    0    0    -1  
$EndComp
$Comp
L power:+VDC #PWR01
U 1 1 5DF3173C
P 2100 1450
F 0 "#PWR01" H 2100 1350 50  0001 C CNN
F 1 "+VDC" H 2100 1725 50  0000 C CNN
F 2 "" H 2100 1450 50  0001 C CNN
F 3 "" H 2100 1450 50  0001 C CNN
	1    2100 1450
	1    0    0    -1  
$EndComp
$Comp
L power:GND #PWR02
U 1 1 5DF322E2
P 2100 1850
F 0 "#PWR02" H 2100 1600 50  0001 C CNN
F 1 "GND" H 2105 1677 50  0000 C CNN
F 2 "" H 2100 1850 50  0001 C CNN
F 3 "" H 2100 1850 50  0001 C CNN
	1    2100 1850
	1    0    0    -1  
$EndComp
$Comp
L power:GND #PWR03
U 1 1 5DF32E64
P 2600 1850
F 0 "#PWR03" H 2600 1600 50  0001 C CNN
F 1 "GND" H 2605 1677 50  0000 C CNN
F 2 "" H 2600 1850 50  0001 C CNN
F 3 "" H 2600 1850 50  0001 C CNN
	1    2600 1850
	1    0    0    -1  
$EndComp
Wire Wire Line
	2600 1500 2600 1450
Wire Wire Line
	2600 1800 2600 1850
$Comp
L power:GND #PWR04
U 1 1 5DF8250D
P 3150 3000
F 0 "#PWR04" H 3150 2750 50  0001 C CNN
F 1 "GND" H 3155 2827 50  0000 C CNN
F 2 "" H 3150 3000 50  0001 C CNN
F 3 "" H 3150 3000 50  0001 C CNN
	1    3150 3000
	1    0    0    -1  
$EndComp
$Comp
L power:GND #PWR05
U 1 1 5DF85A52
P 3850 3000
F 0 "#PWR05" H 3850 2750 50  0001 C CNN
F 1 "GND" H 3855 2827 50  0000 C CNN
F 2 "" H 3850 3000 50  0001 C CNN
F 3 "" H 3850 3000 50  0001 C CNN
	1    3850 3000
	1    0    0    -1  
$EndComp
Wire Wire Line
	2100 1450 2600 1450
Connection ~ 2100 1450
Text Notes 9200 6200 0    50   ~ 0
LDO
Wire Notes Line
	9100 6300 9100 4050
Wire Notes Line
	9100 4050 10400 4050
Wire Notes Line
	10400 4050 10400 6300
Wire Notes Line
	10400 6300 9100 6300
Wire Notes Line
	1300 4050 5200 4050
Wire Notes Line
	5200 4050 5200 6500
Wire Notes Line
	5200 6500 1300 6500
Wire Notes Line
	1300 6500 1300 4050
Text Notes 1400 6400 0    50   ~ 0
rayBeacon Extension Sockets
Text Label 6200 2100 0    50   ~ 0
STORE
$Comp
L Connector:USB_B_Micro J1
U 1 1 5DE64D4E
P 5950 5100
F 0 "J1" H 6007 5567 50  0000 C CNN
F 1 "USB_B_Micro" H 6007 5476 50  0000 C CNN
F 2 "Connector_USB:USB_Micro-B_Amphenol_10103594-0001LF_Horizontal" H 6100 5050 50  0001 C CNN
F 3 "~" H 6100 5050 50  0001 C CNN
F 4 "Micro USB receptacle" H 5950 5100 50  0001 C CNN "Description"
F 5 "10103594-0001LF" H 5950 5100 50  0001 C CNN "MPN"
	1    5950 5100
	1    0    0    -1  
$EndComp
$Comp
L Regulator_Linear:MIC5205-3.2YM5 U2
U 1 1 5DE6FEB5
P 6950 5000
F 0 "U2" H 6950 5342 50  0000 C CNN
F 1 "MIC5205-3.2YM5" H 6950 5251 50  0000 C CNN
F 2 "Package_TO_SOT_SMD:SOT-23-5" H 6950 5325 50  0001 C CNN
F 3 "http://ww1.microchip.com/downloads/en/DeviceDoc/20005785A.pdf" H 6950 5000 50  0001 C CNN
F 4 "LDO regulator, 3.2V" H 6950 5000 50  0001 C CNN "Description"
F 5 "MIC5205-3.2YM5-TR " H 6950 5000 50  0001 C CNN "MPN"
	1    6950 5000
	1    0    0    -1  
$EndComp
$Comp
L Device:C C8
U 1 1 5DE7280E
P 7450 5150
F 0 "C8" H 7565 5196 50  0000 L CNN
F 1 "470p" H 7565 5105 50  0000 L CNN
F 2 "Capacitor_SMD:C_0603_1608Metric" H 7488 5000 50  0001 C CNN
F 3 "~" H 7450 5150 50  0001 C CNN
F 4 "Capacitor, X7R, ±5%" H 7450 5150 50  0001 C CNN "Description"
F 5 "C0603C471J5GACAUTO" H 7450 5150 50  0001 C CNN "MPN"
	1    7450 5150
	1    0    0    -1  
$EndComp
$Comp
L Device:C C9
U 1 1 5DE77959
P 7900 5150
F 0 "C9" H 8015 5196 50  0000 L CNN
F 1 "4.7u" H 8015 5105 50  0000 L CNN
F 2 "Capacitor_SMD:C_0603_1608Metric" H 7938 5000 50  0001 C CNN
F 3 "~" H 7900 5150 50  0001 C CNN
F 4 "Capacitor, X5R, ±10%, 25V" H 7900 5150 50  0001 C CNN "Description"
F 5 "GRM188R61E475KE11D" H 7900 5150 50  0001 C CNN "MPN"
	1    7900 5150
	1    0    0    -1  
$EndComp
$Comp
L Jumper:SolderJumper_2_Open JP6
U 1 1 5DE78B7A
P 8150 4900
F 0 "JP6" H 8150 5105 50  0000 C CNN
F 1 "USB_EN" H 8150 5014 50  0000 C CNN
F 2 "Jumper:SolderJumper-2_P1.3mm_Open_RoundedPad1.0x1.5mm" H 8150 4900 50  0001 C CNN
F 3 "~" H 8150 4900 50  0001 C CNN
F 4 "Jumper, USB sourcing" H 8150 4900 50  0001 C CNN "Description"
F 5 "~" H 8150 4900 50  0001 C CNN "MPN"
	1    8150 4900
	1    0    0    -1  
$EndComp
Wire Wire Line
	7450 5000 7250 5000
Wire Wire Line
	7900 5000 7900 4900
$Comp
L power:GND #PWR016
U 1 1 5DE7FD53
P 6950 5300
F 0 "#PWR016" H 6950 5050 50  0001 C CNN
F 1 "GND" H 6955 5127 50  0000 C CNN
F 2 "" H 6950 5300 50  0001 C CNN
F 3 "" H 6950 5300 50  0001 C CNN
	1    6950 5300
	1    0    0    -1  
$EndComp
$Comp
L power:GND #PWR021
U 1 1 5DE807E7
P 7450 5300
F 0 "#PWR021" H 7450 5050 50  0001 C CNN
F 1 "GND" H 7455 5127 50  0000 C CNN
F 2 "" H 7450 5300 50  0001 C CNN
F 3 "" H 7450 5300 50  0001 C CNN
	1    7450 5300
	1    0    0    -1  
$EndComp
$Comp
L power:GND #PWR022
U 1 1 5DE810B3
P 7900 5300
F 0 "#PWR022" H 7900 5050 50  0001 C CNN
F 1 "GND" H 7905 5127 50  0000 C CNN
F 2 "" H 7900 5300 50  0001 C CNN
F 3 "" H 7900 5300 50  0001 C CNN
	1    7900 5300
	1    0    0    -1  
$EndComp
NoConn ~ 6250 5300
$Comp
L Connector:Conn_01x01_Female J.U1
U 1 1 5DE8581F
P 7000 5700
F 0 "J.U1" H 7028 5726 50  0000 L CNN
F 1 "VBUS" H 7028 5635 50  0000 L CNN
F 2 "TestPoint:TestPoint_Pad_D1.5mm" H 7000 5700 50  0001 C CNN
F 3 "~" H 7000 5700 50  0001 C CNN
F 4 "VBUS solder pad" H 7000 5700 50  0001 C CNN "Description"
F 5 "~" H 7000 5700 50  0001 C CNN "MPN"
	1    7000 5700
	1    0    0    -1  
$EndComp
$Comp
L Connector:Conn_01x01_Female J.U2
U 1 1 5DE8606B
P 7000 5900
F 0 "J.U2" H 7028 5926 50  0000 L CNN
F 1 "D+" H 7028 5835 50  0000 L CNN
F 2 "TestPoint:TestPoint_Pad_D1.5mm" H 7000 5900 50  0001 C CNN
F 3 "~" H 7000 5900 50  0001 C CNN
F 4 "D+ solder pad" H 7000 5900 50  0001 C CNN "Description"
F 5 "~" H 7000 5900 50  0001 C CNN "MPN"
	1    7000 5900
	1    0    0    -1  
$EndComp
$Comp
L Connector:Conn_01x01_Female J.U3
U 1 1 5DE872D4
P 7000 6100
F 0 "J.U3" H 7028 6126 50  0000 L CNN
F 1 "D-" H 7028 6035 50  0000 L CNN
F 2 "TestPoint:TestPoint_Pad_D1.5mm" H 7000 6100 50  0001 C CNN
F 3 "~" H 7000 6100 50  0001 C CNN
F 4 "D- solder pad" H 7000 6100 50  0001 C CNN "Description"
F 5 "~" H 7000 6100 50  0001 C CNN "MPN"
	1    7000 6100
	1    0    0    -1  
$EndComp
Wire Wire Line
	6800 6100 6350 6100
Wire Wire Line
	6350 6100 6350 5200
Wire Wire Line
	6350 5200 6250 5200
Wire Wire Line
	6250 5100 6450 5100
Wire Wire Line
	6450 5100 6450 5900
Wire Wire Line
	6450 5900 6800 5900
Wire Wire Line
	6800 5700 6550 5700
Wire Wire Line
	6550 4900 6250 4900
Wire Wire Line
	6650 4900 6550 4900
Connection ~ 6550 4900
Text Label 8400 4900 0    50   ~ 0
STORE
Wire Wire Line
	6650 5000 6550 5000
Connection ~ 6550 5000
Wire Wire Line
	6550 5000 6550 4900
$Comp
L power:GND #PWR014
U 1 1 5DEB38A2
P 5950 5500
F 0 "#PWR014" H 5950 5250 50  0001 C CNN
F 1 "GND" H 5955 5327 50  0000 C CNN
F 2 "" H 5950 5500 50  0001 C CNN
F 3 "" H 5950 5500 50  0001 C CNN
	1    5950 5500
	1    0    0    -1  
$EndComp
Wire Wire Line
	8000 4900 7900 4900
Connection ~ 7900 4900
Wire Wire Line
	8400 4900 8300 4900
Wire Notes Line
	5550 4050 5550 6300
Wire Notes Line
	5550 6300 8750 6300
Wire Notes Line
	8750 6300 8750 4050
Wire Notes Line
	8750 4050 5550 4050
Text Notes 5650 6200 0    50   ~ 0
USB
$Comp
L Connector:Conn_01x01_Female J.L1
U 1 1 5DEE4411
P 9900 5350
F 0 "J.L1" H 9928 5376 50  0000 L CNN
F 1 "LDO1" H 9928 5285 50  0000 L CNN
F 2 "TestPoint:TestPoint_Pad_D1.5mm" H 9900 5350 50  0001 C CNN
F 3 "~" H 9900 5350 50  0001 C CNN
F 4 "LDO1 solder pad" H 9900 5350 50  0001 C CNN "Description"
F 5 "~" H 9900 5350 50  0001 C CNN "MPN"
	1    9900 5350
	1    0    0    -1  
$EndComp
$Comp
L Connector:Conn_01x01_Female J.L2
U 1 1 5DEE4CB4
P 9900 5550
F 0 "J.L2" H 9928 5576 50  0000 L CNN
F 1 "LDO2" H 9928 5485 50  0000 L CNN
F 2 "TestPoint:TestPoint_Pad_D1.5mm" H 9900 5550 50  0001 C CNN
F 3 "~" H 9900 5550 50  0001 C CNN
F 4 "LDO2 solder pad" H 9900 5550 50  0001 C CNN "Description"
F 5 "~" H 9900 5550 50  0001 C CNN "MPN"
	1    9900 5550
	1    0    0    -1  
$EndComp
Text Label 9700 5350 2    50   ~ 0
LDO1
Text Label 9700 5550 2    50   ~ 0
LDO2
$Comp
L power:PWR_FLAG #FLG01
U 1 1 5DE670EB
P 2100 1450
F 0 "#FLG01" H 2100 1525 50  0001 C CNN
F 1 "PWR_FLAG" V 2100 1577 50  0000 L CNN
F 2 "" H 2100 1450 50  0001 C CNN
F 3 "~" H 2100 1450 50  0001 C CNN
	1    2100 1450
	0    -1   -1   0   
$EndComp
$Comp
L power:PWR_FLAG #FLG02
U 1 1 5DE68B96
P 2900 4450
F 0 "#FLG02" H 2900 4525 50  0001 C CNN
F 1 "PWR_FLAG" V 2900 4577 50  0000 L CNN
F 2 "" H 2900 4450 50  0001 C CNN
F 3 "~" H 2900 4450 50  0001 C CNN
	1    2900 4450
	0    1    1    0   
$EndComp
Wire Wire Line
	2900 4450 2900 4800
Connection ~ 2900 4450
Wire Wire Line
	4700 2400 3650 2400
Wire Wire Line
	4700 2300 3550 2300
Wire Wire Line
	4700 2500 3850 2500
$Comp
L Raybeacon:SPV1050 U1
U 1 1 5DE536A5
P 5400 2400
F 0 "U1" H 5400 3265 50  0000 C CNN
F 1 "SPV1050" H 5400 3174 50  0000 C CNN
F 2 "Package_DFN_QFN:QFN-20-1EP_3x3mm_P0.4mm_EP1.65x1.65mm" H 5400 2650 50  0001 C CNN
F 3 "https://www.st.com/resource/en/datasheet/spv1050.pdf" H 5400 2350 50  0001 C CNN
F 4 "SPV1050 MPPT energy harvester" H 5400 2400 50  0001 C CNN "Description"
F 5 "SPV1050TTR" H 5400 2400 50  0001 C CNN "MPN"
	1    5400 2400
	1    0    0    -1  
$EndComp
Wire Wire Line
	5850 5500 5950 5500
Connection ~ 5950 5500
Text Notes 8300 2300 0    50   ~ 0
R4 = usually 4.7M to 10M\nR5 = Vbg / Veoc * (Veoc - Vuvp) / (Vuvp - Vbg)\nR6 = (R4 + R5) * Vbg / (Veoc - Vbg)\n\nFor ML2032:\nVuvp = 2.4V\nVeoc = 3.1V
Wire Wire Line
	7250 4900 7450 4900
Text Label 7550 4750 0    50   ~ 0
LDO2
Wire Wire Line
	7450 4900 7450 4750
Wire Wire Line
	7450 4750 7550 4750
Connection ~ 7450 4900
Wire Wire Line
	7450 4900 7900 4900
$Comp
L power:GND #PWR06
U 1 1 5DF0BCE6
P 4250 3000
F 0 "#PWR06" H 4250 2750 50  0001 C CNN
F 1 "GND" H 4255 2827 50  0000 C CNN
F 2 "" H 4250 3000 50  0001 C CNN
F 3 "" H 4250 3000 50  0001 C CNN
	1    4250 3000
	1    0    0    -1  
$EndComp
Wire Wire Line
	4700 2800 4250 2800
Wire Wire Line
	4250 2800 4250 3000
NoConn ~ 6100 2600
Wire Wire Line
	8350 3000 8350 2700
Text Notes 1450 2650 0    50   ~ 0
R1 = 10M\nR2+R3 = R1 * Vuvp / (Voc - Vuvp)\nR3_max = Vmp/Voc * (R2+R3)\nR2_max = (R2+R3) - R3\n\nSelected for Voc = 4.7V, Vuvp = 2.4V
Wire Notes Line
	1300 3750 1300 850 
Wire Notes Line
	1300 850  10400 850 
Wire Notes Line
	10400 850  10400 3750
Wire Notes Line
	10400 3750 1300 3750
Text Label 9600 4900 2    50   ~ 0
STORE
Text Notes 6450 2500 0    50   ~ 0
U=1.8V
Wire Wire Line
	2500 4800 2900 4800
Wire Wire Line
	3150 4800 2900 4800
Connection ~ 2900 4800
Wire Wire Line
	8100 1200 7700 1200
Connection ~ 7700 1200
Text Notes 6600 1400 0    50   ~ 0
Supercapacitor (optional)
Text Label 1800 4800 2    50   ~ 0
BATT
Text Notes 1400 3650 0    50   ~ 0
Energy Harvester
Wire Wire Line
	2100 4800 1800 4800
Connection ~ 2100 4800
Wire Wire Line
	4150 5000 3650 5000
$Comp
L Jumper:SolderJumper_2_Open JP7
U 1 1 5E21C203
P 9750 4900
F 0 "JP7" H 9750 5105 50  0000 C CNN
F 1 "LDO1_EN" H 9750 5014 50  0000 C CNN
F 2 "Jumper:SolderJumper-2_P1.3mm_Open_RoundedPad1.0x1.5mm" H 9750 4900 50  0001 C CNN
F 3 "~" H 9750 4900 50  0001 C CNN
F 4 "Jumper, LDO 1.8V enable" H 9750 4900 50  0001 C CNN "Description"
F 5 "~" H 9750 4900 50  0001 C CNN "MPN"
	1    9750 4900
	1    0    0    -1  
$EndComp
$Comp
L power:GND #PWR0101
U 1 1 5E4F718B
P 3450 1700
F 0 "#PWR0101" H 3450 1450 50  0001 C CNN
F 1 "GND" H 3455 1527 50  0000 C CNN
F 2 "" H 3450 1700 50  0001 C CNN
F 3 "" H 3450 1700 50  0001 C CNN
	1    3450 1700
	1    0    0    -1  
$EndComp
$Comp
L Raybeacon:SolderJumper_6_Bridged36 JP1
U 1 1 5E4FD938
P 3750 1500
F 0 "JP1" H 3750 1650 50  0000 C CNN
F 1 "CFG_A" H 3750 1250 50  0000 C CNN
F 2 "Raybeacon:SolderJumper-6_P1.1mm_Open_Pad0.8x0.8mm" H 3750 1500 50  0001 C CNN
F 3 "~" H 3750 1500 50  0001 C CNN
F 4 "Jumper, SPV1050 DCDC config" H 3750 1500 50  0001 C CNN "Description"
F 5 "~" H 3750 1500 50  0001 C CNN "MPN"
	1    3750 1500
	1    0    0    -1  
$EndComp
Wire Wire Line
	4300 1900 4300 1450
Wire Wire Line
	4300 1450 3950 1450
Wire Wire Line
	4200 1550 3950 1550
Connection ~ 2600 1450
Text Notes 3500 1250 0    50   ~ 0
DC-DC configuration:\nbuck-boost: 1-3, 2-4 closed, 5 floating\nboost: 1-2, 3-4, 5-6 closed
Wire Wire Line
	3150 2100 3150 1450
Wire Wire Line
	4100 2100 4700 2100
Wire Wire Line
	4200 2000 4700 2000
Wire Wire Line
	4200 1550 4200 2000
Wire Wire Line
	4100 1650 4100 1950
Wire Wire Line
	4400 1900 4300 1900
Connection ~ 3150 1450
$Comp
L Jumper:SolderJumper_3_Open JP2
U 1 1 5E58887B
P 4600 3250
F 0 "JP2" H 4600 3363 50  0000 C CNN
F 1 "CFG_B" H 4600 3454 50  0000 C CNN
F 2 "Raybeacon:SolderJumper-3_P1.1mm_Open_Pad0.8x1.0mm" H 4600 3250 50  0001 C CNN
F 3 "~" H 4600 3250 50  0001 C CNN
F 4 "Jumper, SPV1050 DCDC config" H 4600 3250 50  0001 C CNN "Description"
F 5 "~" H 4600 3250 50  0001 C CNN "MPN"
	1    4600 3250
	-1   0    0    1   
$EndComp
Wire Wire Line
	4800 3250 5300 3250
Connection ~ 5300 3250
Wire Wire Line
	2600 1450 2950 1450
Wire Wire Line
	4400 3250 2950 3250
Wire Wire Line
	2950 3250 2950 1450
Connection ~ 2950 1450
Wire Wire Line
	2950 1450 3150 1450
Wire Wire Line
	4100 1650 3950 1650
Wire Wire Line
	3550 1650 3450 1650
Wire Wire Line
	3450 1650 3450 1700
Wire Wire Line
	3150 1450 3550 1450
Text Notes 3500 3550 0    50   ~ 0
DC-DC configuration:\nbuck-boost: 1-2 closed\nboost: 2-3 closed
$Comp
L power:PWR_FLAG #FLG0101
U 1 1 5E5C95B8
P 4100 2100
F 0 "#FLG0101" H 4100 2175 50  0001 C CNN
F 1 "PWR_FLAG" V 4100 2227 50  0000 L CNN
F 2 "" H 4100 2100 50  0001 C CNN
F 3 "~" H 4100 2100 50  0001 C CNN
	1    4100 2100
	0    -1   -1   0   
$EndComp
Connection ~ 4100 2100
Wire Wire Line
	3150 2400 3550 2400
Wire Wire Line
	3550 2400 3550 2300
Wire Wire Line
	3650 2700 3650 2400
Wire Wire Line
	3150 2700 3650 2700
Wire Wire Line
	6450 1900 6450 1200
Wire Wire Line
	6100 1900 6450 1900
Wire Wire Line
	6450 1200 7700 1200
$Comp
L Device:C C10
U 1 1 5E57E819
P 6550 4450
F 0 "C10" H 6665 4496 50  0000 L CNN
F 1 "4.7u" H 6665 4405 50  0000 L CNN
F 2 "Capacitor_SMD:C_0603_1608Metric" H 6588 4300 50  0001 C CNN
F 3 "~" H 6550 4450 50  0001 C CNN
F 4 "Capacitor, X5R, ±10%, 25V" H 6550 4450 50  0001 C CNN "Description"
F 5 "GRM188R61E475KE11D" H 6550 4450 50  0001 C CNN "MPN"
	1    6550 4450
	1    0    0    -1  
$EndComp
$Comp
L power:GND #PWR0102
U 1 1 5E583020
P 6950 4250
F 0 "#PWR0102" H 6950 4000 50  0001 C CNN
F 1 "GND" H 6955 4077 50  0000 C CNN
F 2 "" H 6950 4250 50  0001 C CNN
F 3 "" H 6950 4250 50  0001 C CNN
	1    6950 4250
	1    0    0    -1  
$EndComp
Wire Wire Line
	6550 4600 6550 4900
Wire Wire Line
	6550 5000 6550 5700
Wire Wire Line
	6550 4300 6550 4250
Wire Wire Line
	6550 4250 6950 4250
Wire Wire Line
	4100 1950 3300 1950
Wire Wire Line
	3300 1950 3300 1550
Wire Wire Line
	3300 1550 3550 1550
Connection ~ 4100 1950
Wire Wire Line
	4100 1950 4100 2100
$EndSCHEMATC
