EESchema Schematic File Version 4
EELAYER 30 0
EELAYER END
$Descr A4 11693 8268
encoding utf-8
Sheet 1 1
Title "Slice Board: Orientation Sensors"
Date ""
Rev "0.4"
Comp "Raytrails, Pvt."
Comment1 "Copyright (c) 2020"
Comment2 "License: BSD"
Comment3 ""
Comment4 ""
$EndDescr
$Comp
L Connector_Generic:Conn_02x04_Odd_Even J1
U 1 1 5DC741EA
P 4650 5650
F 0 "J1" H 4700 5967 50  0000 C CNN
F 1 "I/O" H 4700 5876 50  0000 C CNN
F 2 "Connector_PinHeader_1.27mm:PinHeader_2x04_P1.27mm_Vertical" H 4650 5650 50  0001 C CNN
F 3 "~" H 4650 5650 50  0001 C CNN
F 4 "Pin Header" H 4650 5650 50  0001 C CNN "Description"
F 5 "62200821121" H 4650 5650 50  0001 C CNN "MPN"
	1    4650 5650
	1    0    0    -1  
$EndComp
$Comp
L Raybeacon:LSM303AGR U1
U 1 1 5DC75E09
P 4250 3400
F 0 "U1" H 3850 2900 50  0000 C CNN
F 1 "LSM303AGR" H 3850 2800 50  0000 C CNN
F 2 "Package_LGA:LGA-12_2x2mm_P0.5mm" H 3850 2700 50  0001 L CNN
F 3 "https://www.st.com/resource/en/datasheet/lsm303agr.pdf" H 4350 2750 50  0001 C CNN
F 4 "IMU" H 4250 3400 50  0001 C CNN "Description"
F 5 "LSM303AGRTR" H 4250 3400 50  0001 C CNN "MPN"
	1    4250 3400
	1    0    0    -1  
$EndComp
$Comp
L Raybeacon:BMG250 U2
U 1 1 5DC7A0B2
P 7650 3400
F 0 "U2" H 7200 2850 50  0000 C CNN
F 1 "BMG250" H 7200 2750 50  0000 C CNN
F 2 "Package_LGA:Bosch_LGA-14_3x2.5mm_P0.5mm" H 7650 3500 50  0001 C CNN
F 3 "https://ae-bst.resource.bosch.com/media/_tech/media/datasheets/BST-BMG250-DS000.pdf" H 7650 3500 50  0001 C CNN
F 4 "Gyroscope" H 7650 3400 50  0001 C CNN "Description"
F 5 "BMG250" H 7650 3400 50  0001 C CNN "MPN"
	1    7650 3400
	1    0    0    -1  
$EndComp
$Comp
L Device:C C1
U 1 1 5DC7EFE6
P 4000 2500
F 0 "C1" V 3748 2500 50  0000 C CNN
F 1 "100nF" V 3839 2500 50  0000 C CNN
F 2 "Capacitor_SMD:C_0603_1608Metric" H 4038 2350 50  0001 C CNN
F 3 "~" H 4000 2500 50  0001 C CNN
F 4 "Capacitor, X7R, ±5%" H 4000 2500 50  0001 C CNN "Description"
F 5 "C0603X104J4RECAUTO" H 4000 2500 50  0001 C CNN "MPN"
	1    4000 2500
	0    1    1    0   
$EndComp
$Comp
L Device:C C4
U 1 1 5DC7F841
P 5050 3850
F 0 "C4" H 5165 3896 50  0000 L CNN
F 1 "220nF" H 5165 3805 50  0000 L CNN
F 2 "Capacitor_SMD:C_0603_1608Metric" H 5088 3700 50  0001 C CNN
F 3 "~" H 5050 3850 50  0001 C CNN
F 4 "Capacitor, X7R, ±5%, ESR<200mOhm" H 5050 3850 50  0001 C CNN "Description"
F 5 "GCM188R71E224JA55D" H 5050 3850 50  0001 C CNN "MPN"
	1    5050 3850
	1    0    0    -1  
$EndComp
$Comp
L Device:C C2
U 1 1 5DC7FCC9
P 4600 2100
F 0 "C2" V 4348 2100 50  0000 C CNN
F 1 "10uF" V 4439 2100 50  0000 C CNN
F 2 "Capacitor_SMD:C_0603_1608Metric" H 4638 1950 50  0001 C CNN
F 3 "~" H 4600 2100 50  0001 C CNN
F 4 "Capacitor, X5R, ±20%" H 4600 2100 50  0001 C CNN "Description"
F 5 "JMK107ABJ106MAHT" H 4600 2100 50  0001 C CNN "MPN"
	1    4600 2100
	0    1    1    0   
$EndComp
$Comp
L Device:C C3
U 1 1 5DC80107
P 4600 2500
F 0 "C3" V 4348 2500 50  0000 C CNN
F 1 "100nF" V 4439 2500 50  0000 C CNN
F 2 "Capacitor_SMD:C_0603_1608Metric" H 4638 2350 50  0001 C CNN
F 3 "~" H 4600 2500 50  0001 C CNN
F 4 "Capacitor, X7R, ±5%" H 4600 2500 50  0001 C CNN "Description"
F 5 "C0603X104J4RECAUTO" H 4600 2500 50  0001 C CNN "MPN"
	1    4600 2500
	0    1    1    0   
$EndComp
$Comp
L power:GND #PWR06
U 1 1 5DC84582
P 4850 2550
F 0 "#PWR06" H 4850 2300 50  0001 C CNN
F 1 "GND" H 4855 2377 50  0000 C CNN
F 2 "" H 4850 2550 50  0001 C CNN
F 3 "" H 4850 2550 50  0001 C CNN
	1    4850 2550
	1    0    0    -1  
$EndComp
$Comp
L power:GND #PWR02
U 1 1 5DC85917
P 3750 2550
F 0 "#PWR02" H 3750 2300 50  0001 C CNN
F 1 "GND" H 3755 2377 50  0000 C CNN
F 2 "" H 3750 2550 50  0001 C CNN
F 3 "" H 3750 2550 50  0001 C CNN
	1    3750 2550
	1    0    0    -1  
$EndComp
Wire Wire Line
	4350 2100 4450 2100
Wire Wire Line
	4350 2500 4450 2500
Connection ~ 4350 2500
Wire Wire Line
	4350 2500 4350 2100
Wire Wire Line
	4750 2500 4850 2500
Wire Wire Line
	4850 2500 4850 2550
Wire Wire Line
	4750 2100 4850 2100
Wire Wire Line
	4850 2100 4850 2500
Connection ~ 4850 2500
Wire Wire Line
	4250 2800 4250 2500
Wire Wire Line
	4250 2500 4150 2500
Wire Wire Line
	3850 2500 3750 2500
Wire Wire Line
	3750 2500 3750 2550
Wire Wire Line
	4350 2500 4350 2800
$Comp
L power:GND #PWR05
U 1 1 5DC87D70
P 4350 4000
F 0 "#PWR05" H 4350 3750 50  0001 C CNN
F 1 "GND" H 4355 3827 50  0000 C CNN
F 2 "" H 4350 4000 50  0001 C CNN
F 3 "" H 4350 4000 50  0001 C CNN
	1    4350 4000
	1    0    0    -1  
$EndComp
Wire Wire Line
	4350 4000 4250 4000
Connection ~ 4350 4000
$Comp
L power:GND #PWR07
U 1 1 5DC88512
P 5050 4000
F 0 "#PWR07" H 5050 3750 50  0001 C CNN
F 1 "GND" H 5055 3827 50  0000 C CNN
F 2 "" H 5050 4000 50  0001 C CNN
F 3 "" H 5050 4000 50  0001 C CNN
	1    5050 4000
	1    0    0    -1  
$EndComp
Text Label 3450 3200 2    50   ~ 0
I2C_SCL
Wire Wire Line
	4950 3600 5050 3600
Wire Wire Line
	5050 3600 5050 3700
Text Label 3450 3300 2    50   ~ 0
I2C_SDA
$Comp
L power:VDD #PWR01
U 1 1 5DC8A28D
P 2900 3300
F 0 "#PWR01" H 2900 3150 50  0001 C CNN
F 1 "VDD" H 2917 3473 50  0000 C CNN
F 2 "" H 2900 3300 50  0001 C CNN
F 3 "" H 2900 3300 50  0001 C CNN
	1    2900 3300
	1    0    0    -1  
$EndComp
Wire Wire Line
	3550 3400 2900 3400
Wire Wire Line
	3550 3500 2900 3500
Wire Wire Line
	2900 3500 2900 3400
Connection ~ 2900 3400
Wire Wire Line
	2900 3300 2900 3400
$Comp
L power:VDD #PWR03
U 1 1 5DC8B308
P 4250 2500
F 0 "#PWR03" H 4250 2350 50  0001 C CNN
F 1 "VDD" H 4267 2673 50  0000 C CNN
F 2 "" H 4250 2500 50  0001 C CNN
F 3 "" H 4250 2500 50  0001 C CNN
	1    4250 2500
	1    0    0    -1  
$EndComp
Connection ~ 4250 2500
$Comp
L power:VDD #PWR04
U 1 1 5DC8B827
P 4350 2100
F 0 "#PWR04" H 4350 1950 50  0001 C CNN
F 1 "VDD" H 4367 2273 50  0000 C CNN
F 2 "" H 4350 2100 50  0001 C CNN
F 3 "" H 4350 2100 50  0001 C CNN
	1    4350 2100
	1    0    0    -1  
$EndComp
Connection ~ 4350 2100
Wire Wire Line
	3450 3200 3550 3200
Wire Wire Line
	3550 3300 3450 3300
Text Label 5050 3300 0    50   ~ 0
INT_M
Text Label 5050 3400 0    50   ~ 0
INT_A
Wire Wire Line
	5050 3400 4950 3400
Wire Wire Line
	5050 3300 4950 3300
NoConn ~ 4950 3200
NoConn ~ 6950 3100
NoConn ~ 6950 3200
NoConn ~ 8350 3200
NoConn ~ 8350 3500
NoConn ~ 8350 3600
Text Label 8450 3100 0    50   ~ 0
INT_G
Wire Wire Line
	8450 3100 8350 3100
$Comp
L Device:C C5
U 1 1 5DC8E896
P 7350 2500
F 0 "C5" V 7098 2500 50  0000 C CNN
F 1 "100nF" V 7189 2500 50  0000 C CNN
F 2 "Capacitor_SMD:C_0603_1608Metric" H 7388 2350 50  0001 C CNN
F 3 "~" H 7350 2500 50  0001 C CNN
F 4 "Capacitor, X7R, ±5%" H 7350 2500 50  0001 C CNN "Description"
F 5 "C0603X104J4RECAUTO" H 7350 2500 50  0001 C CNN "MPN"
	1    7350 2500
	0    1    1    0   
$EndComp
$Comp
L Device:C C6
U 1 1 5DC8FCA7
P 7950 2500
F 0 "C6" V 7698 2500 50  0000 C CNN
F 1 "100nF" V 7789 2500 50  0000 C CNN
F 2 "Capacitor_SMD:C_0603_1608Metric" H 7988 2350 50  0001 C CNN
F 3 "~" H 7950 2500 50  0001 C CNN
F 4 "Capacitor, X7R, ±5%" H 7950 2500 50  0001 C CNN "Description"
F 5 "C0603X104J4RECAUTO" H 7950 2500 50  0001 C CNN "MPN"
	1    7950 2500
	0    1    1    0   
$EndComp
$Comp
L power:GND #PWR014
U 1 1 5DC90B5E
P 8200 2500
F 0 "#PWR014" H 8200 2250 50  0001 C CNN
F 1 "GND" H 8205 2327 50  0000 C CNN
F 2 "" H 8200 2500 50  0001 C CNN
F 3 "" H 8200 2500 50  0001 C CNN
	1    8200 2500
	1    0    0    -1  
$EndComp
$Comp
L power:GND #PWR010
U 1 1 5DC9163B
P 7100 2500
F 0 "#PWR010" H 7100 2250 50  0001 C CNN
F 1 "GND" H 7105 2327 50  0000 C CNN
F 2 "" H 7100 2500 50  0001 C CNN
F 3 "" H 7100 2500 50  0001 C CNN
	1    7100 2500
	1    0    0    -1  
$EndComp
Wire Wire Line
	7100 2500 7200 2500
Wire Wire Line
	8200 2500 8100 2500
Wire Wire Line
	7800 2500 7700 2500
Wire Wire Line
	7700 2500 7700 2750
Wire Wire Line
	7500 2500 7600 2500
Wire Wire Line
	7600 2500 7600 2750
$Comp
L power:VDD #PWR011
U 1 1 5DC933C2
P 7600 2500
F 0 "#PWR011" H 7600 2350 50  0001 C CNN
F 1 "VDD" H 7617 2673 50  0000 C CNN
F 2 "" H 7600 2500 50  0001 C CNN
F 3 "" H 7600 2500 50  0001 C CNN
	1    7600 2500
	1    0    0    -1  
$EndComp
Connection ~ 7600 2500
$Comp
L power:VDD #PWR012
U 1 1 5DC93CB6
P 7700 2500
F 0 "#PWR012" H 7700 2350 50  0001 C CNN
F 1 "VDD" H 7717 2673 50  0000 C CNN
F 2 "" H 7700 2500 50  0001 C CNN
F 3 "" H 7700 2500 50  0001 C CNN
	1    7700 2500
	1    0    0    -1  
$EndComp
Connection ~ 7700 2500
$Comp
L power:VDD #PWR08
U 1 1 5DC94228
P 6750 3400
F 0 "#PWR08" H 6750 3250 50  0001 C CNN
F 1 "VDD" H 6767 3573 50  0000 C CNN
F 2 "" H 6750 3400 50  0001 C CNN
F 3 "" H 6750 3400 50  0001 C CNN
	1    6750 3400
	1    0    0    -1  
$EndComp
Wire Wire Line
	6750 3400 6950 3400
Text Label 6750 3500 2    50   ~ 0
I2C_SCL
Wire Wire Line
	6750 3500 6950 3500
Text Label 6750 3600 2    50   ~ 0
I2C_SDA
Wire Wire Line
	6750 3600 6950 3600
$Comp
L power:GND #PWR09
U 1 1 5DC96427
P 6750 3700
F 0 "#PWR09" H 6750 3450 50  0001 C CNN
F 1 "GND" H 6755 3527 50  0000 C CNN
F 2 "" H 6750 3700 50  0001 C CNN
F 3 "" H 6750 3700 50  0001 C CNN
	1    6750 3700
	1    0    0    -1  
$EndComp
Wire Wire Line
	6950 3700 6750 3700
$Comp
L power:GND #PWR013
U 1 1 5DC971E5
P 7700 4050
F 0 "#PWR013" H 7700 3800 50  0001 C CNN
F 1 "GND" H 7705 3877 50  0000 C CNN
F 2 "" H 7700 4050 50  0001 C CNN
F 3 "" H 7700 4050 50  0001 C CNN
	1    7700 4050
	1    0    0    -1  
$EndComp
Wire Wire Line
	7700 4050 7600 4050
Connection ~ 7700 4050
$Comp
L power:GND #PWR0101
U 1 1 5DCA0958
P 3950 5850
F 0 "#PWR0101" H 3950 5600 50  0001 C CNN
F 1 "GND" H 3955 5677 50  0000 C CNN
F 2 "" H 3950 5850 50  0001 C CNN
F 3 "" H 3950 5850 50  0001 C CNN
	1    3950 5850
	1    0    0    -1  
$EndComp
Text Label 3300 5650 2    50   ~ 0
I2C_SCL
Text Label 3300 5750 2    50   ~ 0
I2C_SDA
Text Label 5050 5650 0    50   ~ 0
INT_A
Text Label 5050 5850 0    50   ~ 0
INT_G
Text Label 5050 5750 0    50   ~ 0
INT_M
Wire Wire Line
	5050 5850 4950 5850
Wire Wire Line
	5050 5750 4950 5750
Wire Wire Line
	5050 5650 4950 5650
NoConn ~ 4950 5550
$Comp
L Device:R_US R2
U 1 1 5DCA78A2
P 3950 5450
F 0 "R2" H 4018 5496 50  0000 L CNN
F 1 "1.65k" H 4018 5405 50  0000 L CNN
F 2 "Resistor_SMD:R_0603_1608Metric" V 3990 5440 50  0001 C CNN
F 3 "~" H 3950 5450 50  0001 C CNN
F 4 "Resistor, 62mW, ±5%" H 3950 5450 50  0001 C CNN "Description"
F 5 "ERJ-3EKF1651V" H 3950 5450 50  0001 C CNN "MPN"
	1    3950 5450
	1    0    0    -1  
$EndComp
$Comp
L Device:R_US R1
U 1 1 5DCA82A9
P 3550 5450
F 0 "R1" H 3618 5496 50  0000 L CNN
F 1 "1.65k" H 3618 5405 50  0000 L CNN
F 2 "Resistor_SMD:R_0603_1608Metric" V 3590 5440 50  0001 C CNN
F 3 "~" H 3550 5450 50  0001 C CNN
F 4 "Resistor, 62mW, ±5%" H 3550 5450 50  0001 C CNN "Description"
F 5 "ERJ-3EKF1651V" H 3550 5450 50  0001 C CNN "MPN"
	1    3550 5450
	1    0    0    -1  
$EndComp
Wire Wire Line
	3300 5750 3950 5750
Wire Wire Line
	3300 5650 3550 5650
Wire Wire Line
	3950 5600 3950 5750
Connection ~ 3950 5750
Wire Wire Line
	3950 5750 4450 5750
Wire Wire Line
	3550 5600 3550 5650
Connection ~ 3550 5650
Wire Wire Line
	3550 5650 4450 5650
Wire Wire Line
	4450 5550 4350 5550
Wire Wire Line
	4350 5550 4350 5250
Wire Wire Line
	4350 5250 3950 5250
Wire Wire Line
	3550 5250 3550 5300
Wire Wire Line
	3950 5300 3950 5250
Connection ~ 3950 5250
Wire Wire Line
	3950 5250 3550 5250
$Comp
L power:VDD #PWR0102
U 1 1 5DCB56B1
P 3550 5250
F 0 "#PWR0102" H 3550 5100 50  0001 C CNN
F 1 "VDD" H 3567 5423 50  0000 C CNN
F 2 "" H 3550 5250 50  0001 C CNN
F 3 "" H 3550 5250 50  0001 C CNN
	1    3550 5250
	1    0    0    -1  
$EndComp
Connection ~ 3550 5250
$Comp
L power:PWR_FLAG #FLG0101
U 1 1 5DCCEEA5
P 4350 5250
F 0 "#FLG0101" H 4350 5325 50  0001 C CNN
F 1 "PWR_FLAG" H 4350 5423 50  0000 C CNN
F 2 "" H 4350 5250 50  0001 C CNN
F 3 "~" H 4350 5250 50  0001 C CNN
	1    4350 5250
	1    0    0    -1  
$EndComp
Connection ~ 4350 5250
Wire Wire Line
	3950 5850 4350 5850
$Comp
L power:PWR_FLAG #FLG0102
U 1 1 5DCD349A
P 4350 5850
F 0 "#FLG0102" H 4350 5925 50  0001 C CNN
F 1 "PWR_FLAG" H 4350 6023 50  0000 C CNN
F 2 "" H 4350 5850 50  0001 C CNN
F 3 "~" H 4350 5850 50  0001 C CNN
	1    4350 5850
	-1   0    0    1   
$EndComp
Connection ~ 4350 5850
Wire Wire Line
	4350 5850 4450 5850
$EndSCHEMATC
