(module MountingHole_2.1mm_NoClearance (layer F.Cu) (tedit 5EAB1CBD)
  (descr "Mounting Hole 2.1mm, no annular, no clearance")
  (tags "mounting hole 2.1mm no annular")
  (attr virtual)
  (fp_text reference REF** (at 0 -1.4) (layer F.SilkS) hide
    (effects (font (size 1 1) (thickness 0.15)))
  )
  (fp_text value MountingHole_2.1mm_NoClearance (at 0 1.4) (layer F.Fab) hide
    (effects (font (size 1 1) (thickness 0.15)))
  )
  (fp_text user %R (at 0 0) (layer F.Fab) hide
    (effects (font (size 1 1) (thickness 0.15)))
  )
  (fp_circle (center 0 0) (end 1.15 0) (layer F.CrtYd) (width 0.05))
  (fp_circle (center 0 0) (end 1.05 0) (layer Cmts.User) (width 0.1))
  (pad "" np_thru_hole circle (at 0 0) (size 2.1 2.1) (drill 2.1) (layers *.Cu *.Mask))
)
